0
SECTION
2
HEADER
9
$INSUNITS
70
1
9
$ACADVER
1
AC1014
9
$HANDSEED
5
FFFF
0
ENDSEC
0
SECTION
2
TABLES
0
TABLE
2
VPORT
5
8
100
AcDbSymbolTable
0
ENDTAB
0
TABLE
2
LTYPE
5
5
100
AcDbSymbolTable
0
LTYPE
5
14
100
AcDbSymbolTableRecord
100
AcDbLinetypeTableRecord
2
BYBLOCK
70
0
0
LTYPE
5
15
100
AcDbSymbolTableRecord
100
AcDbLinetypeTableRecord
2
BYLAYER
70
0
0
ENDTAB
0
TABLE
2
LAYER
5
2
100
AcDbSymbolTable
70
2
0
LAYER
5
50
100
AcDbSymbolTableRecord
100
AcDbLayerTableRecord
2
0
70
0
6
CONTINUOUS
0
ENDTAB
0
TABLE
2
STYLE
5
3
100
AcDbSymbolTable
70
1
0
STYLE
5
11
100
AcDbSymbolTableRecord
100
AcDbTextStyleTableRecord
2
STANDARD
70
0
0
ENDTAB
0
TABLE
2
VIEW
5
6
100
AcDbSymbolTable
70
0
0
ENDTAB
0
TABLE
2
UCS
5
7
100
AcDbSymbolTable
70
0
0
ENDTAB
0
TABLE
2
APPID
5
9
100
AcDbSymbolTable
70
2
0
APPID
5
12
100
AcDbSymbolTableRecord
100
AcDbRegAppTableRecord
2
ACAD
70
0
0
ENDTAB
0
TABLE
2
DIMSTYLE
5
A
100
AcDbSymbolTable
70
1
0
ENDTAB
0
TABLE
2
BLOCK_RECORD
5
1
100
AcDbSymbolTable
70
1
0
BLOCK_RECORD
5
1F
100
AcDbSymbolTableRecord
100
AcDbBlockTableRecord
2
*MODEL_SPACE
0
BLOCK_RECORD
5
1B
100
AcDbSymbolTableRecord
100
AcDbBlockTableRecord
2
*PAPER_SPACE
0
ENDTAB
0
ENDSEC
0
SECTION
2
BLOCKS
0
BLOCK
5
20
100
AcDbEntity
100
AcDbBlockBegin
2
*MODEL_SPACE
0
ENDBLK
5
21
100
AcDbEntity
100
AcDbBlockEnd
0
BLOCK
5
1C
100
AcDbEntity
100
AcDbBlockBegin
2
*PAPER_SPACE
0
ENDBLK
5
1D
100
AcDbEntity
100
AcDbBlockEnd
0
ENDSEC
0
SECTION
2
ENTITIES
0
CIRCLE
5
100
100
AcDbEntity
8
0
100
AcDbCircle
10
6.4980183581003521
20
21.787308403832494
30
-3.4967654318902565e-16
40
0.059055118110235665
210
0
220
2.7755575615628914e-17
230
1
0
CIRCLE
5
101
100
AcDbEntity
8
0
100
AcDbCircle
10
6.1934766445409304
20
28.426910559851169
30
-6.9935308637805131e-16
40
0.059055118110236365
210
0
220
-0
230
1
0
CIRCLE
5
102
100
AcDbEntity
8
0
100
AcDbCircle
10
5.0806955234546827
20
21.787308403832494
30
-3.4967654318902565e-16
40
0.059055118110235665
210
0
220
2.7755575615628914e-17
230
1
0
CIRCLE
5
103
100
AcDbEntity
8
0
100
AcDbCircle
10
4.6267002469776788
20
28.434094826159896
30
-1.049029629567077e-15
40
0.059055118110237066
210
0
220
-0
230
1
0
CIRCLE
5
104
100
AcDbEntity
8
0
100
AcDbCircle
10
7.7602530421041811
20
28.419726293542436
30
-1.3987061727561026e-15
40
0.31496062992125873
210
0
220
2.7755575615628914e-17
230
1
0
CIRCLE
5
105
100
AcDbEntity
8
0
100
AcDbCircle
10
5.4464566929133875
20
22.635204024910411
30
-1.049029629567077e-15
40
0.11811023622047201
210
0
220
-0
230
1
0
CIRCLE
5
106
100
AcDbEntity
8
0
100
AcDbCircle
10
6.1551181102362218
20
22.635204024910411
30
-1.049029629567077e-15
40
0.11811023622047201
210
0
220
-0
230
1
0
CIRCLE
5
107
100
AcDbEntity
8
0
100
AcDbCircle
10
4.7377952755905524
20
22.635204024910411
30
-1.049029629567077e-15
40
0.11811023622047133
210
0
220
2.7755575615628914e-17
230
1
0
CIRCLE
5
108
100
AcDbEntity
8
0
100
AcDbCircle
10
6.8637795275590561
20
22.635204024910411
30
-1.049029629567077e-15
40
0.11811023622047133
210
0
220
2.7755575615628914e-17
230
1
0
LWPOLYLINE
5
109
100
AcDbEntity
8
0
100
AcDbPolyline
90
4
70
1
43
0.0
10
5.0280561953528391
20
18.94267521230034
10
5.0280561953528391
20
18.50960428983926
10
5.4611270614945715
20
18.509604289839263
10
5.4611270614945715
20
18.94267521230034
0
LWPOLYLINE
5
110
100
AcDbEntity
8
0
100
AcDbPolyline
90
4
70
1
43
0.0
10
6.0516782425969327
20
19.533226402202608
10
5.6186073764552011
20
19.533226402202608
10
5.6186073764552011
20
19.100155529607616
10
6.0516782425969327
20
19.100155529607612
0
LWPOLYLINE
5
111
100
AcDbEntity
8
0
100
AcDbPolyline
90
4
70
1
43
0.0
10
5.4611270614945706
20
20.123777592104862
10
5.0280561953528391
20
20.123777592104862
10
5.0280561953528391
20
19.690706719509876
10
5.4611270614945706
20
19.690706719509873
0
LWPOLYLINE
5
112
100
AcDbEntity
8
0
100
AcDbPolyline
90
4
70
1
43
0.0
10
6.0516782425969318
20
20.714328699288078
10
5.618607376455202
20
20.714328699288078
10
5.618607376455202
20
20.281257909412133
10
6.0516782425969318
20
20.281257909412133
0
LWPOLYLINE
5
113
100
AcDbEntity
8
0
100
AcDbPolyline
90
4
70
1
43
0.0
10
5.4611270614945706
20
20.714328699288082
10
5.0280561953528391
20
20.714328699288078
10
5.0280561953528391
20
20.281257909412133
10
5.4611270614945706
20
20.281257909412133
0
LWPOLYLINE
5
114
100
AcDbEntity
8
0
100
AcDbPolyline
90
4
70
1
43
0.0
10
6.0516782425969327
20
20.123777592104862
10
5.6186073764552011
20
20.123777592104862
10
5.6186073764552011
20
19.690706719509876
10
6.0516782425969327
20
19.690706719509873
0
LWPOLYLINE
5
115
100
AcDbEntity
8
0
100
AcDbPolyline
90
4
70
1
43
0.0
10
5.4611270614945706
20
19.533226402202608
10
5.0280561953528391
20
19.533226402202608
10
5.0280561953528391
20
19.100155529607616
10
5.4611270614945706
20
19.100155529607612
0
LWPOLYLINE
5
116
100
AcDbEntity
8
0
100
AcDbPolyline
90
4
70
1
43
0.0
10
5.6186073764552003
20
18.94267521230034
10
5.6186073764552003
20
18.50960428983926
10
6.0516782425969327
20
18.50960428983926
10
6.0516782425969327
20
18.94267521230034
0
LWPOLYLINE
5
117
100
AcDbEntity
8
0
100
AcDbPolyline
90
4
70
1
43
0.0
10
4.4375050142504771
20
18.942675212300344
10
4.4375050142504771
20
18.50960428983926
10
4.8705758803922095
20
18.50960428983926
10
4.8705758803922095
20
18.942675212300344
0
LWPOLYLINE
5
118
100
AcDbEntity
8
0
100
AcDbPolyline
90
4
70
1
43
0.0
10
6.2091585575575614
20
19.533226402202612
10
6.2091585575575614
20
19.100155529607616
10
6.642229423699292
20
19.100155529607612
10
6.642229423699292
20
19.533226402202608
0
LWPOLYLINE
5
119
100
AcDbEntity
8
0
100
AcDbPolyline
90
4
70
1
43
0.0
10
4.8705758803922103
20
20.123777592104862
10
4.4375050142504771
20
20.123777592104862
10
4.4375050142504771
20
19.690706719509876
10
4.8705758803922103
20
19.690706719509873
0
LWPOLYLINE
5
120
100
AcDbEntity
8
0
100
AcDbPolyline
90
4
70
1
43
0.0
10
6.2091585575575614
20
20.714328699288075
10
6.2091585575575614
20
20.281257909412133
10
6.6422294236992911
20
20.281257909412133
10
6.6422294236992911
20
20.714328699288078
0
LWPOLYLINE
5
121
100
AcDbEntity
8
0
100
AcDbPolyline
90
4
70
1
43
0.0
10
4.8705758803922112
20
20.714328699288078
10
4.4375050142504779
20
20.714328699288078
10
4.4375050142504779
20
20.28125790941213
10
4.8705758803922112
20
20.28125790941213
0
LWPOLYLINE
5
122
100
AcDbEntity
8
0
100
AcDbPolyline
90
4
70
1
43
0.0
10
6.2091585575575614
20
20.123777592104862
10
6.2091585575575614
20
19.690706719509876
10
6.642229423699292
20
19.690706719509873
10
6.642229423699292
20
20.123777592104862
0
LWPOLYLINE
5
123
100
AcDbEntity
8
0
100
AcDbPolyline
90
4
70
1
43
0.0
10
4.8705758803922103
20
19.533226402202608
10
4.4375050142504771
20
19.533226402202608
10
4.4375050142504771
20
19.100155529607616
10
4.8705758803922103
20
19.100155529607612
0
LWPOLYLINE
5
124
100
AcDbEntity
8
0
100
AcDbPolyline
90
4
70
1
43
0.0
10
6.6422294236992938
20
18.94267521230034
10
6.2091585575575614
20
18.94267521230034
10
6.2091585575575614
20
18.509604289839263
10
6.6422294236992938
20
18.509604289839267
0
CIRCLE
5
125
100
AcDbEntity
8
0
100
AcDbCircle
10
6.4213815741820843
20
21.152194896705009
30
-3.4967654318902565e-16
40
0.059055118110236872
210
-1.4526145909173373e-18
220
2.771753756388089e-17
230
1
0
CIRCLE
5
126
100
AcDbEntity
8
0
100
AcDbCircle
10
6.4239047458573797
20
18.063694186683804
30
0
40
0.059055118110235484
210
-1.4526145909173713e-18
220
2.7717537563880887e-17
230
1
0
CIRCLE
5
127
100
AcDbEntity
8
0
100
AcDbCircle
10
4.647433068670578
20
21.154474586076013
30
-1.049029629567077e-15
40
0.059055118110236872
210
-1.4526145909173373e-18
220
2.771753756388089e-17
230
1
0
CIRCLE
5
128
100
AcDbEntity
8
0
100
AcDbCircle
10
4.6511949290978105
20
18.060559549396174
30
-3.4967654318902565e-16
40
0.059055118110236872
210
-1.4526145909173373e-18
220
2.771753756388089e-17
230
1
0
CIRCLE
5
129
100
AcDbEntity
8
0
100
AcDbCircle
10
7.2110561838245024
20
21.468455061308273
30
-3.4967654318902565e-16
40
0.059055118110235665
210
0
220
2.7755575615628914e-17
230
1
0
CIRCLE
5
130
100
AcDbEntity
8
0
100
AcDbCircle
10
7.1425535199557642
20
23.675478199490641
30
-6.9935308637805131e-16
40
0.04921259842519686
210
3.1908878082099487e-49
220
2.7755575615628914e-17
230
1
0
LWPOLYLINE
5
131
100
AcDbEntity
8
0
100
AcDbPolyline
90
4
70
1
43
0.0
10
4.7797173642633464
20
23.180644954977378
10
4.7797173642633464
20
25.779070151827767
10
4.6419220886727954
20
25.779070151827767
10
4.6419220886727954
20
23.180644954977378
0
CIRCLE
5
132
100
AcDbEntity
8
0
100
AcDbCircle
10
7.5074101989960598
20
26.446839819866248
30
-6.9935308637805131e-16
40
0.04921259842519686
210
-1.1970092230441908e-47
220
2.7755575615628914e-17
230
1
0
CIRCLE
5
133
100
AcDbEntity
8
0
100
AcDbCircle
10
4.63426928988721
20
27.129147466481204
30
-1.3987061727561026e-15
40
0.14763779527559126
210
0
220
-0
230
1
0
CIRCLE
5
134
100
AcDbEntity
8
0
100
AcDbCircle
10
6.5634031481549266
20
27.129147466481221
30
-1.049029629567077e-15
40
0.14763779527559195
210
0
220
2.7755575615628914e-17
230
1
0
CIRCLE
5
135
100
AcDbEntity
8
0
100
AcDbCircle
10
8.1441486616288774
20
29.266789599056526
30
-6.9935308637805131e-16
40
0.059055118110237066
210
0
220
-0
230
1
0
CIRCLE
5
136
100
AcDbEntity
8
0
100
AcDbCircle
10
4.4594270230208535
20
29.261342453644691
30
-6.9935308637805131e-16
40
0.059055118110237066
210
0
220
-0
230
1
0
CIRCLE
5
137
100
AcDbEntity
8
0
100
AcDbCircle
10
6.8704897623281536
20
27.129147466481221
30
-1.049029629567077e-15
40
0.059055118110237066
210
0
220
-0
230
1
0
CIRCLE
5
138
100
AcDbEntity
8
0
100
AcDbCircle
10
4.9413559040604378
20
27.129147466481204
30
-1.3987061727561026e-15
40
0.059055118110236365
210
0
220
-0
230
1
0
CIRCLE
5
139
100
AcDbEntity
8
0
100
AcDbCircle
10
6.5660649583995045
20
26.269814358576159
30
-3.4967654318902565e-16
40
0.04921259842519686
210
2.1891626269834415e-47
220
2.7755575615628914e-17
230
1
0
LWPOLYLINE
5
140
100
AcDbEntity
8
0
100
AcDbPolyline
90
4
70
1
43
0.0
10
5.5907434907204641
20
23.379195671837596
10
5.7040852059217304
20
25.975147743664465
10
5.5664210809006089
20
25.981158289167574
10
5.4530793656993426
20
23.385206217340702
0
CIRCLE
5
141
100
AcDbEntity
8
0
100
AcDbCircle
10
6.3224406381206188
20
23.485175635563813
30
0
40
0.04921259842519686
210
-2.9130484110505725e-49
220
2.7755575615628914e-17
230
1
0
CIRCLE
5
142
100
AcDbEntity
8
0
100
AcDbCircle
10
7.2874045008465771
20
22.095037801006676
30
-1.049029629567077e-15
40
0.059055118110237066
210
0
220
-0
230
1
0
CIRCLE
5
143
100
AcDbEntity
8
0
100
AcDbCircle
10
4.2536428601444882
20
15.477726195629183
30
-6.9935308637805131e-16
40
0.059055118110236365
210
0
220
-0
230
1
0
CIRCLE
5
144
100
AcDbEntity
8
0
100
AcDbCircle
10
4.2516617889288
20
22.096174997924827
30
-3.4967654318902565e-16
40
0.059055118110235665
210
0
220
2.7755575615628914e-17
230
1
0
CIRCLE
5
145
100
AcDbEntity
8
0
100
AcDbCircle
10
4.7108197264680713
20
23.082219758126989
30
-6.9935308637805131e-16
40
0.04921259842519686
210
0
220
2.7755575615628914e-17
230
1
0
LWPOLYLINE
5
146
100
AcDbEntity
8
0
100
AcDbPolyline
90
4
70
1
43
0.0
10
7.5628713417855877
20
26.340263717904836
10
7.4262549238797497
20
26.358249610533594
10
7.0870923771662309
20
23.78205430145205
10
7.2237087950720706
20
23.764068408823302
0
CIRCLE
5
147
100
AcDbEntity
8
0
100
AcDbCircle
10
4.7108197264680713
20
25.877495348678163
30
-3.4967654318902565e-16
40
0.04921259842519686
210
0
220
2.7755575615628914e-17
230
1
0
CIRCLE
5
148
100
AcDbEntity
8
0
100
AcDbCircle
10
5.9256078725643748
20
27.129147466481211
30
-3.4967654318902565e-16
40
0.059055118110236365
210
0
220
-0
230
1
0
CIRCLE
5
149
100
AcDbEntity
8
0
100
AcDbCircle
10
7.8941118095722489
20
27.129147466481225
30
-1.049029629567077e-15
40
0.059055118110237066
210
0
220
-0
230
1
0
CIRCLE
5
150
100
AcDbEntity
8
0
100
AcDbCircle
10
7.5870251953990211
20
27.129147466481225
30
-1.049029629567077e-15
40
0.14763779527559195
210
0
220
2.7755575615628914e-17
230
1
0
CIRCLE
5
151
100
AcDbEntity
8
0
100
AcDbCircle
10
5.618521258391147
20
27.129147466481211
30
-3.4967654318902565e-16
40
0.14763779527559126
210
0
220
-0
230
1
0
CIRCLE
5
152
100
AcDbEntity
8
0
100
AcDbCircle
10
5.6395463901990963
20
26.076484534288237
30
0
40
0.04921259842519686
210
1.0945813134917207e-47
220
2.7755575615628914e-17
230
1
0
LWPOLYLINE
5
153
100
AcDbEntity
8
0
100
AcDbPolyline
90
4
70
1
43
0.0
10
6.6261220987456211
20
26.165758874519554
10
6.4888511757802254
20
26.177768524110778
10
6.2623834977744997
20
23.589231119620422
10
6.3996544207398971
20
23.577221470029205
0
CIRCLE
5
154
100
AcDbEntity
8
0
100
AcDbCircle
10
5.5176181814219776
20
23.283869426716919
30
-3.4967654318902565e-16
40
0.04921259842519686
210
-1.4565242055252863e-49
220
2.7755575615628914e-17
230
1
0
CIRCLE
5
155
100
AcDbEntity
8
0
100
AcDbCircle
10
4.2516617889288
20
21.46959225822642
30
-3.4967654318902565e-16
40
0.059055118110236365
210
0
220
-0
230
1
0
CIRCLE
5
156
100
AcDbEntity
8
0
100
AcDbCircle
10
6.4598175939736509
20
15.478774398762301
30
0
40
0.059055118110235665
210
0
220
2.7755575615628914e-17
230
1
0
LWPOLYLINE
5
157
100
AcDbEntity
8
0
100
AcDbPolyline
90
8
70
1
43
0.0
10
7.6948096996142885
20
23.822467762739844
10
6.4594594715244789
20
13.939666012233761
10
4.0551181102362213
20
13.925928302142578
10
4.0551181102362159
20
29.241023669000526
42
-0.27801992779917173
10
4.9596246397340877
20
29.78730849711037
10
7.6411187699208938
20
29.787308374765043
42
-0.32672851919536694
10
8.6166893435097034
20
29.073628502050006
10
8.0078135393416208
20
25.826051465740921
0
CIRCLE
5
158
100
AcDbEntity
8
0
100
AcDbCircle
10
6.4980183581003521
20
21.787308403832498
30
-0.11811023622046467
40
0.059055118110235658
210
0
220
-4.163336342344336e-16
230
1
0
CIRCLE
5
159
100
AcDbEntity
8
0
100
AcDbCircle
10
6.1934766445409304
20
28.426910559851169
30
-0.11811023622032235
40
0.059055118110236358
210
0
220
-4.163336342344336e-16
230
1
0
CIRCLE
5
160
100
AcDbEntity
8
0
100
AcDbCircle
10
5.0806955234546827
20
21.787308403832498
30
-0.11811023622046467
40
0.059055118110235658
210
0
220
-4.163336342344336e-16
230
1
0
CIRCLE
5
161
100
AcDbEntity
8
0
100
AcDbCircle
10
4.6267002469776788
20
28.434094826159896
30
-0.11811023622032166
40
0.059055118110237052
210
0
220
-4.163336342344336e-16
230
1
0
CIRCLE
5
162
100
AcDbEntity
8
0
100
AcDbCircle
10
7.7602530421041811
20
28.419726293542436
30
-0.11811023622032235
40
0.31496062992125867
210
0
220
-4.163336342344336e-16
230
1
0
CIRCLE
5
163
100
AcDbEntity
8
0
100
AcDbCircle
10
5.4464566929133875
20
22.635204024910411
30
-0.11811023622046501
40
0.11811023622047201
210
0
220
-4.163336342344336e-16
230
1
0
CIRCLE
5
164
100
AcDbEntity
8
0
100
AcDbCircle
10
6.1551181102362218
20
22.635204024910411
30
-0.11811023622046501
40
0.11811023622047201
210
0
220
-4.163336342344336e-16
230
1
0
CIRCLE
5
165
100
AcDbEntity
8
0
100
AcDbCircle
10
4.7377952755905524
20
22.635204024910411
30
-0.11811023622046501
40
0.11811023622047132
210
0
220
-4.163336342344336e-16
230
1
0
CIRCLE
5
166
100
AcDbEntity
8
0
100
AcDbCircle
10
6.8637795275590561
20
22.635204024910411
30
-0.11811023622046501
40
0.11811023622047132
210
0
220
-4.163336342344336e-16
230
1
0
LINE
5
167
100
AcDbEntity
8
0
100
AcDbLine
10
5.0280561953528391
20
18.94267521230034
30
-0.11811023622046642
11
5.0280561953528391
21
18.50960428983926
31
-0.11811023622046669
0
LINE
5
168
100
AcDbEntity
8
0
100
AcDbLine
10
5.0280561953528391
20
18.50960428983926
30
-0.11811023622046669
11
5.4611270614945715
21
18.509604289839267
31
-0.11811023622046604
0
LINE
5
169
100
AcDbEntity
8
0
100
AcDbLine
10
5.4611270614945715
20
18.509604289839267
30
-0.11811023622046604
11
5.4611270614945715
21
18.942675212300344
31
-0.11811023622046615
0
LINE
5
170
100
AcDbEntity
8
0
100
AcDbLine
10
5.4611270614945715
20
18.942675212300344
30
-0.11811023622046615
11
5.0280561953528391
21
18.94267521230034
31
-0.11811023622046642
0
LINE
5
171
100
AcDbEntity
8
0
100
AcDbLine
10
6.0516782425969327
20
19.533226402202608
30
-0.11811023622046607
11
5.6186073764552011
21
19.533226402202608
31
-0.11811023622046607
0
LINE
5
172
100
AcDbEntity
8
0
100
AcDbLine
10
5.6186073764552011
20
19.533226402202608
30
-0.11811023622046607
11
5.6186073764552011
21
19.100155529607612
31
-0.11811023622046611
0
LINE
5
173
100
AcDbEntity
8
0
100
AcDbLine
10
5.6186073764552011
20
19.100155529607612
30
-0.11811023622046611
11
6.0516782425969327
21
19.100155529607612
31
-0.11811023622046607
0
LINE
5
174
100
AcDbEntity
8
0
100
AcDbLine
10
6.0516782425969327
20
19.100155529607612
30
-0.11811023622046607
11
6.0516782425969327
21
19.533226402202608
31
-0.11811023622046607
0
LINE
5
175
100
AcDbEntity
8
0
100
AcDbLine
10
5.4611270614945706
20
20.123777592104865
30
-0.11811023622046607
11
5.0280561953528391
21
20.123777592104865
31
-0.11811023622046607
0
LINE
5
176
100
AcDbEntity
8
0
100
AcDbLine
10
5.0280561953528391
20
20.123777592104865
30
-0.11811023622046607
11
5.0280561953528391
21
19.690706719509876
31
-0.11811023622046622
0
LINE
5
177
100
AcDbEntity
8
0
100
AcDbLine
10
5.0280561953528391
20
19.690706719509876
30
-0.11811023622046622
11
5.4611270614945706
21
19.690706719509873
31
-0.11811023622046607
0
LINE
5
178
100
AcDbEntity
8
0
100
AcDbLine
10
5.4611270614945706
20
19.690706719509873
30
-0.11811023622046607
11
5.4611270614945706
21
20.123777592104865
31
-0.11811023622046607
0
LINE
5
179
100
AcDbEntity
8
0
100
AcDbLine
10
6.0516782425969318
20
20.714328699288078
30
-0.11811023622046536
11
5.618607376455202
21
20.714328699288078
31
-0.11811023622046536
0
LINE
5
180
100
AcDbEntity
8
0
100
AcDbLine
10
5.618607376455202
20
20.714328699288078
30
-0.11811023622046536
11
5.618607376455202
21
20.281257909412133
31
-0.11811023622046563
0
LINE
5
181
100
AcDbEntity
8
0
100
AcDbLine
10
5.618607376455202
20
20.281257909412133
30
-0.11811023622046563
11
6.0516782425969318
21
20.281257909412133
31
-0.11811023622046572
0
LINE
5
182
100
AcDbEntity
8
0
100
AcDbLine
10
6.0516782425969318
20
20.281257909412133
30
-0.11811023622046572
11
6.0516782425969318
21
20.714328699288078
31
-0.11811023622046536
0
LINE
5
183
100
AcDbEntity
8
0
100
AcDbLine
10
5.4611270614945706
20
20.714328699288082
30
-0.11811023622046572
11
5.0280561953528391
21
20.714328699288078
31
-0.11811023622046574
0
LINE
5
184
100
AcDbEntity
8
0
100
AcDbLine
10
5.0280561953528391
20
20.714328699288078
30
-0.11811023622046574
11
5.0280561953528391
21
20.281257909412133
31
-0.1181102362204655
0
LINE
5
185
100
AcDbEntity
8
0
100
AcDbLine
10
5.0280561953528391
20
20.281257909412133
30
-0.1181102362204655
11
5.4611270614945706
21
20.281257909412133
31
-0.11811023622046572
0
LINE
5
186
100
AcDbEntity
8
0
100
AcDbLine
10
5.4611270614945706
20
20.281257909412133
30
-0.11811023622046572
11
5.4611270614945706
21
20.714328699288082
31
-0.11811023622046572
0
LINE
5
187
100
AcDbEntity
8
0
100
AcDbLine
10
6.0516782425969327
20
20.123777592104862
30
-0.11811023622046572
11
5.6186073764552011
21
20.123777592104862
31
-0.11811023622046572
0
LINE
5
188
100
AcDbEntity
8
0
100
AcDbLine
10
5.6186073764552011
20
20.123777592104862
30
-0.11811023622046572
11
5.6186073764552011
21
19.690706719509876
31
-0.11811023622046603
0
LINE
5
189
100
AcDbEntity
8
0
100
AcDbLine
10
5.6186073764552011
20
19.690706719509876
30
-0.11811023622046603
11
6.0516782425969327
21
19.690706719509873
31
-0.11811023622046607
0
LINE
5
190
100
AcDbEntity
8
0
100
AcDbLine
10
6.0516782425969327
20
19.690706719509873
30
-0.11811023622046607
11
6.0516782425969327
21
20.123777592104862
31
-0.11811023622046572
0
LINE
5
191
100
AcDbEntity
8
0
100
AcDbLine
10
5.4611270614945706
20
19.533226402202608
30
-0.11811023622046607
11
5.0280561953528391
21
19.533226402202608
31
-0.11811023622046607
0
LINE
5
192
100
AcDbEntity
8
0
100
AcDbLine
10
5.0280561953528391
20
19.533226402202608
30
-0.11811023622046607
11
5.0280561953528391
21
19.100155529607612
31
-0.11811023622046611
0
LINE
5
193
100
AcDbEntity
8
0
100
AcDbLine
10
5.0280561953528391
20
19.100155529607612
30
-0.11811023622046611
11
5.4611270614945706
21
19.100155529607612
31
-0.11811023622046607
0
LINE
5
194
100
AcDbEntity
8
0
100
AcDbLine
10
5.4611270614945706
20
19.100155529607612
30
-0.11811023622046607
11
5.4611270614945706
21
19.533226402202608
31
-0.11811023622046607
0
LINE
5
195
100
AcDbEntity
8
0
100
AcDbLine
10
5.6186073764552003
20
18.94267521230034
30
-0.11811023622046642
11
5.6186073764552003
21
18.50960428983926
31
-0.11811023622046669
0
LINE
5
196
100
AcDbEntity
8
0
100
AcDbLine
10
5.6186073764552003
20
18.50960428983926
30
-0.11811023622046669
11
6.0516782425969327
21
18.509604289839263
31
-0.11811023622046607
0
LINE
5
197
100
AcDbEntity
8
0
100
AcDbLine
10
6.0516782425969327
20
18.509604289839263
30
-0.11811023622046607
11
6.0516782425969327
21
18.942675212300344
31
-0.11811023622046578
0
LINE
5
198
100
AcDbEntity
8
0
100
AcDbLine
10
6.0516782425969327
20
18.942675212300344
30
-0.11811023622046578
11
5.6186073764552003
21
18.94267521230034
31
-0.11811023622046642
0
LINE
5
199
100
AcDbEntity
8
0
100
AcDbLine
10
4.4375050142504771
20
18.942675212300344
30
-0.11811023622046607
11
4.4375050142504771
21
18.50960428983926
31
-0.11811023622046637
0
LINE
5
200
100
AcDbEntity
8
0
100
AcDbLine
10
4.4375050142504771
20
18.50960428983926
30
-0.11811023622046637
11
4.8705758803922095
21
18.509604289839263
31
-0.11811023622046607
0
LINE
5
201
100
AcDbEntity
8
0
100
AcDbLine
10
4.8705758803922095
20
18.509604289839263
30
-0.11811023622046607
11
4.8705758803922095
21
18.942675212300347
31
-0.11811023622046576
0
LINE
5
202
100
AcDbEntity
8
0
100
AcDbLine
10
4.8705758803922095
20
18.942675212300347
30
-0.11811023622046576
11
4.4375050142504771
21
18.942675212300344
31
-0.11811023622046607
0
LINE
5
203
100
AcDbEntity
8
0
100
AcDbLine
10
6.2091585575575614
20
19.533226402202608
30
-0.11811023622046607
11
6.2091585575575614
21
19.100155529607612
31
-0.11811023622046611
0
LINE
5
204
100
AcDbEntity
8
0
100
AcDbLine
10
6.2091585575575614
20
19.100155529607612
30
-0.11811023622046611
11
6.642229423699292
21
19.100155529607612
31
-0.11811023622046607
0
LINE
5
205
100
AcDbEntity
8
0
100
AcDbLine
10
6.642229423699292
20
19.100155529607612
30
-0.11811023622046607
11
6.642229423699292
21
19.533226402202608
31
-0.11811023622046603
0
LINE
5
206
100
AcDbEntity
8
0
100
AcDbLine
10
6.642229423699292
20
19.533226402202608
30
-0.11811023622046603
11
6.2091585575575614
21
19.533226402202608
31
-0.11811023622046607
0
LINE
5
207
100
AcDbEntity
8
0
100
AcDbLine
10
4.8705758803922103
20
20.123777592104865
30
-0.11811023622046607
11
4.4375050142504771
21
20.123777592104865
31
-0.11811023622046607
0
LINE
5
208
100
AcDbEntity
8
0
100
AcDbLine
10
4.4375050142504771
20
20.123777592104865
30
-0.11811023622046607
11
4.4375050142504771
21
19.690706719509876
31
-0.11811023622046622
0
LINE
5
209
100
AcDbEntity
8
0
100
AcDbLine
10
4.4375050142504771
20
19.690706719509876
30
-0.11811023622046622
11
4.8705758803922103
21
19.690706719509873
31
-0.11811023622046607
0
LINE
5
210
100
AcDbEntity
8
0
100
AcDbLine
10
4.8705758803922103
20
19.690706719509873
30
-0.11811023622046607
11
4.8705758803922103
21
20.123777592104865
31
-0.11811023622046607
0
LINE
5
211
100
AcDbEntity
8
0
100
AcDbLine
10
6.2091585575575614
20
20.714328699288075
30
-0.11811023622046572
11
6.2091585575575614
21
20.281257909412133
31
-0.11811023622046543
0
LINE
5
212
100
AcDbEntity
8
0
100
AcDbLine
10
6.2091585575575614
20
20.281257909412133
30
-0.11811023622046543
11
6.6422294236992911
21
20.281257909412133
31
-0.11811023622046585
0
LINE
5
213
100
AcDbEntity
8
0
100
AcDbLine
10
6.6422294236992911
20
20.281257909412133
30
-0.11811023622046585
11
6.6422294236992911
21
20.714328699288078
31
-0.118110236220466
0
LINE
5
214
100
AcDbEntity
8
0
100
AcDbLine
10
6.6422294236992911
20
20.714328699288078
30
-0.118110236220466
11
6.2091585575575614
21
20.714328699288075
31
-0.11811023622046572
0
LINE
5
215
100
AcDbEntity
8
0
100
AcDbLine
10
4.8705758803922112
20
20.714328699288078
30
-0.11811023622046536
11
4.4375050142504779
21
20.714328699288078
31
-0.11811023622046539
0
LINE
5
216
100
AcDbEntity
8
0
100
AcDbLine
10
4.4375050142504779
20
20.714328699288078
30
-0.11811023622046539
11
4.4375050142504779
21
20.28125790941213
31
-0.11811023622046567
0
LINE
5
217
100
AcDbEntity
8
0
100
AcDbLine
10
4.4375050142504779
20
20.28125790941213
30
-0.11811023622046567
11
4.8705758803922112
21
20.28125790941213
31
-0.1181102362204652
0
LINE
5
218
100
AcDbEntity
8
0
100
AcDbLine
10
4.8705758803922112
20
20.28125790941213
30
-0.1181102362204652
11
4.8705758803922112
21
20.714328699288078
31
-0.11811023622046536
0
LINE
5
219
100
AcDbEntity
8
0
100
AcDbLine
10
6.2091585575575614
20
20.123777592104862
30
-0.11811023622046572
11
6.2091585575575614
21
19.690706719509876
31
-0.11811023622046585
0
LINE
5
220
100
AcDbEntity
8
0
100
AcDbLine
10
6.2091585575575614
20
19.690706719509876
30
-0.11811023622046585
11
6.642229423699292
21
19.690706719509873
31
-0.11811023622046607
0
LINE
5
221
100
AcDbEntity
8
0
100
AcDbLine
10
6.642229423699292
20
19.690706719509873
30
-0.11811023622046607
11
6.642229423699292
21
20.123777592104862
31
-0.11811023622046576
0
LINE
5
222
100
AcDbEntity
8
0
100
AcDbLine
10
6.642229423699292
20
20.123777592104862
30
-0.11811023622046576
11
6.2091585575575614
21
20.123777592104862
31
-0.11811023622046572
0
LINE
5
223
100
AcDbEntity
8
0
100
AcDbLine
10
4.8705758803922103
20
19.533226402202608
30
-0.11811023622046607
11
4.4375050142504771
21
19.533226402202608
31
-0.11811023622046607
0
LINE
5
224
100
AcDbEntity
8
0
100
AcDbLine
10
4.4375050142504771
20
19.533226402202608
30
-0.11811023622046607
11
4.4375050142504771
21
19.100155529607612
31
-0.11811023622046611
0
LINE
5
225
100
AcDbEntity
8
0
100
AcDbLine
10
4.4375050142504771
20
19.100155529607612
30
-0.11811023622046611
11
4.8705758803922103
21
19.100155529607612
31
-0.11811023622046607
0
LINE
5
226
100
AcDbEntity
8
0
100
AcDbLine
10
4.8705758803922103
20
19.100155529607612
30
-0.11811023622046607
11
4.8705758803922103
21
19.533226402202608
31
-0.11811023622046607
0
LINE
5
227
100
AcDbEntity
8
0
100
AcDbLine
10
6.6422294236992938
20
18.94267521230034
30
-0.11811023622046607
11
6.2091585575575614
21
18.94267521230034
31
-0.11811023622046607
0
LINE
5
228
100
AcDbEntity
8
0
100
AcDbLine
10
6.2091585575575614
20
18.94267521230034
30
-0.11811023622046607
11
6.2091585575575614
21
18.509604289839263
31
-0.11811023622046629
0
LINE
5
229
100
AcDbEntity
8
0
100
AcDbLine
10
6.2091585575575614
20
18.509604289839263
30
-0.11811023622046629
11
6.6422294236992938
21
18.509604289839267
31
-0.11811023622046639
0
LINE
5
230
100
AcDbEntity
8
0
100
AcDbLine
10
6.6422294236992938
20
18.509604289839267
30
-0.11811023622046639
11
6.6422294236992938
21
18.94267521230034
31
-0.11811023622046607
0
CIRCLE
5
231
100
AcDbEntity
8
0
100
AcDbCircle
10
6.4213815741820843
20
21.152194896705009
30
-0.11811023622046501
40
0.059055118110236872
210
1.0010656908493874e-18
220
-4.1685252440140135e-16
230
1
0
CIRCLE
5
232
100
AcDbEntity
8
0
100
AcDbCircle
10
6.4239047458573797
20
18.063694186683808
30
-0.11811023622046642
40
0.05905511811023547
210
1.0010656908498956e-18
220
-4.168525244014012e-16
230
1
0
CIRCLE
5
233
100
AcDbEntity
8
0
100
AcDbCircle
10
4.647433068670578
20
21.154474586076017
30
-0.11811023622046536
40
0.059055118110236872
210
1.0010656908493874e-18
220
-4.1685252440140135e-16
230
1
0
CIRCLE
5
234
100
AcDbEntity
8
0
100
AcDbCircle
10
4.6511949290978105
20
18.060559549396174
30
-0.11811023622046676
40
0.059055118110236872
210
1.0010656908493874e-18
220
-4.1685252440140135e-16
230
1
0
CIRCLE
5
235
100
AcDbEntity
8
0
100
AcDbCircle
10
7.2110561838245024
20
21.468455061308273
30
-0.11811023622046361
40
0.059055118110235658
210
0
220
-4.163336342344336e-16
230
1
0
CIRCLE
5
236
100
AcDbEntity
8
0
100
AcDbCircle
10
7.1425535199557642
20
23.675478199490644
30
-0.11811023622046816
40
0.049212598425196846
210
2.843960544692467e-33
220
-4.163336342344336e-16
230
1
0
LINE
5
237
100
AcDbEntity
8
0
100
AcDbLine
10
4.7797173642633464
20
23.180644954977378
30
-0.11811023622047306
11
4.7797173642633464
21
25.779070151827771
31
-0.11811023622047315
0
LINE
5
238
100
AcDbEntity
8
0
100
AcDbLine
10
4.7797173642633464
20
25.779070151827771
30
-0.11811023622047315
11
4.6419220886727954
21
25.779070151827771
31
-0.11811023622047306
0
LINE
5
239
100
AcDbEntity
8
0
100
AcDbLine
10
4.6419220886727954
20
25.779070151827771
30
-0.11811023622047306
11
4.6419220886727954
21
23.180644954977382
31
-0.11811023622047297
0
LINE
5
240
100
AcDbEntity
8
0
100
AcDbLine
10
4.6419220886727954
20
23.180644954977382
30
-0.11811023622047297
11
4.7797173642633464
21
23.180644954977378
31
-0.11811023622047306
0
CIRCLE
5
241
100
AcDbEntity
8
0
100
AcDbCircle
10
7.5074101989960598
20
26.446839819866248
30
-0.11811023622036571
40
0.049212598425196846
210
-1.8931457546044432e-33
220
-4.163336342344336e-16
230
1
0
CIRCLE
5
242
100
AcDbEntity
8
0
100
AcDbCircle
10
4.63426928988721
20
27.129147466481204
30
-0.11811023622035033
40
0.14763779527559123
210
0
220
-4.163336342344336e-16
230
1
0
CIRCLE
5
243
100
AcDbEntity
8
0
100
AcDbCircle
10
6.5634031481549266
20
27.129147466481221
30
-0.11811023622035033
40
0.14763779527559193
210
0
220
-4.163336342344336e-16
230
1
0
CIRCLE
5
244
100
AcDbEntity
8
0
100
AcDbCircle
10
8.1441486616288774
20
29.266789599056526
30
-0.11811023622030417
40
0.059055118110237052
210
0
220
-4.163336342344336e-16
230
1
0
CIRCLE
5
245
100
AcDbEntity
8
0
100
AcDbCircle
10
4.4594270230208535
20
29.261342453644705
30
-0.11811023622030452
40
0.059055118110237052
210
0
220
-4.163336342344336e-16
230
1
0
CIRCLE
5
246
100
AcDbEntity
8
0
100
AcDbCircle
10
6.8704897623281536
20
27.129147466481221
30
-0.11811023622035033
40
0.059055118110237052
210
0
220
-4.163336342344336e-16
230
1
0
CIRCLE
5
247
100
AcDbEntity
8
0
100
AcDbCircle
10
4.9413559040604378
20
27.129147466481204
30
-0.11811023622035033
40
0.059055118110236358
210
0
220
-4.163336342344336e-16
230
1
0
CIRCLE
5
248
100
AcDbEntity
8
0
100
AcDbCircle
10
6.5660649583995045
20
26.269814358576159
30
-0.1181102362203692
40
0.049212598425196846
210
-7.6551531688449826e-33
220
-4.163336342344336e-16
230
1
0
LINE
5
249
100
AcDbEntity
8
0
100
AcDbLine
10
5.5907434907204641
20
23.379195671837596
30
-0.11811023622047166
11
5.7040852059217304
21
25.975147743664461
31
-0.11811023622047122
0
LINE
5
250
100
AcDbEntity
8
0
100
AcDbLine
10
5.7040852059217304
20
25.975147743664461
30
-0.11811023622047122
11
5.5664210809006089
21
25.981158289167567
31
-0.11811023622047258
0
LINE
5
251
100
AcDbEntity
8
0
100
AcDbLine
10
5.5664210809006089
20
25.981158289167567
30
-0.11811023622047258
11
5.4530793656993426
21
23.385206217340698
31
-0.11811023622047166
0
LINE
5
252
100
AcDbEntity
8
0
100
AcDbLine
10
5.4530793656993426
20
23.385206217340698
30
-0.11811023622047166
11
5.5907434907204641
21
23.379195671837596
31
-0.11811023622047166
0
CIRCLE
5
253
100
AcDbEntity
8
0
100
AcDbCircle
10
6.3224406381206188
20
23.485175635563817
30
-0.11811023622046782
40
0.049212598425196846
210
-1.9718922975685771e-33
220
-4.163336342344336e-16
230
1
0
CIRCLE
5
254
100
AcDbEntity
8
0
100
AcDbCircle
10
7.2874045008465771
20
22.095037801006679
30
-0.11811023622046501
40
0.059055118110237052
210
0
220
-4.163336342344336e-16
230
1
0
CIRCLE
5
255
100
AcDbEntity
8
0
100
AcDbCircle
10
4.2536428601444882
20
15.477726195629179
30
-0.11811023622045523
40
0.059055118110236358
210
0
220
-4.163336342344336e-16
230
1
0
CIRCLE
5
256
100
AcDbEntity
8
0
100
AcDbCircle
10
4.2516617889288
20
22.096174997924823
30
-0.11811023622046536
40
0.059055118110235658
210
0
220
-4.163336342344336e-16
230
1
0
CIRCLE
5
257
100
AcDbEntity
8
0
100
AcDbCircle
10
4.7108197264680713
20
23.082219758126985
30
-0.11811023622046711
40
0.049212598425196846
210
0
220
-4.163336342344336e-16
230
1
0
LINE
5
258
100
AcDbEntity
8
0
100
AcDbLine
10
7.5628713417855877
20
26.340263717904843
30
-0.11811023622047306
11
7.4262549238797497
21
26.358249610533601
31
-0.11811023622047338
0
LINE
5
259
100
AcDbEntity
8
0
100
AcDbLine
10
7.4262549238797497
20
26.358249610533601
30
-0.11811023622047338
11
7.0870923771662309
21
23.782054301452053
31
-0.11811023622047254
0
LINE
5
260
100
AcDbEntity
8
0
100
AcDbLine
10
7.0870923771662309
20
23.782054301452053
30
-0.11811023622047254
11
7.2237087950720706
21
23.764068408823299
31
-0.11811023622047261
0
LINE
5
261
100
AcDbEntity
8
0
100
AcDbLine
10
7.2237087950720706
20
23.764068408823299
30
-0.11811023622047261
11
7.5628713417855877
21
26.340263717904843
31
-0.11811023622047306
0
CIRCLE
5
262
100
AcDbEntity
8
0
100
AcDbCircle
10
4.7108197264680713
20
25.877495348678163
30
-0.1181102362203776
40
0.049212598425196846
210
0
220
-4.163336342344336e-16
230
1
0
CIRCLE
5
263
100
AcDbEntity
8
0
100
AcDbCircle
10
5.9256078725643748
20
27.129147466481211
30
-0.11811023622035068
40
0.059055118110236358
210
0
220
-4.163336342344336e-16
230
1
0
CIRCLE
5
264
100
AcDbEntity
8
0
100
AcDbCircle
10
7.8941118095722489
20
27.129147466481225
30
-0.11811023622035068
40
0.059055118110237052
210
0
220
-4.163336342344336e-16
230
1
0
CIRCLE
5
265
100
AcDbEntity
8
0
100
AcDbCircle
10
7.5870251953990211
20
27.129147466481225
30
-0.11811023622035068
40
0.14763779527559193
210
0
220
-4.163336342344336e-16
230
1
0
CIRCLE
5
266
100
AcDbEntity
8
0
100
AcDbCircle
10
5.618521258391147
20
27.129147466481211
30
-0.11811023622035068
40
0.14763779527559123
210
0
220
-4.163336342344336e-16
230
1
0
CIRCLE
5
267
100
AcDbEntity
8
0
100
AcDbCircle
10
5.6395463901990963
20
26.076484534288248
30
-0.11811023622037375
40
0.049212598425196846
210
-3.8275765844224913e-33
220
-4.163336342344336e-16
230
1
0
LINE
5
268
100
AcDbEntity
8
0
100
AcDbLine
10
6.6261220987456211
20
26.165758874519561
30
-0.11811023622047272
11
6.4888511757802254
21
26.177768524110782
31
-0.11811023622047223
0
LINE
5
269
100
AcDbEntity
8
0
100
AcDbLine
10
6.4888511757802254
20
26.177768524110782
30
-0.11811023622047223
11
6.2623834977744997
21
23.589231119620422
31
-0.11811023622047122
0
LINE
5
270
100
AcDbEntity
8
0
100
AcDbLine
10
6.2623834977744997
20
23.589231119620422
30
-0.11811023622047122
11
6.3996544207398971
21
23.577221470029208
31
-0.1181102362204723
0
LINE
5
271
100
AcDbEntity
8
0
100
AcDbLine
10
6.3996544207398971
20
23.577221470029208
30
-0.1181102362204723
11
6.6261220987456211
21
26.165758874519561
31
-0.11811023622047272
0
CIRCLE
5
272
100
AcDbEntity
8
0
100
AcDbCircle
10
5.5176181814219776
20
23.283869426716915
30
-0.11811023622046782
40
0.049212598425196846
210
-9.8594614878428856e-34
220
-4.163336342344336e-16
230
1
0
CIRCLE
5
273
100
AcDbEntity
8
0
100
AcDbCircle
10
4.2516617889288
20
21.46959225822642
30
-0.11811023622046397
40
0.059055118110236358
210
0
220
-4.163336342344336e-16
230
1
0
CIRCLE
5
274
100
AcDbEntity
8
0
100
AcDbCircle
10
6.4598175939736509
20
15.478774398762301
30
-0.11811023622045523
40
0.059055118110235658
210
0
220
-4.163336342344336e-16
230
1
0
LINE
5
275
100
AcDbEntity
8
0
100
AcDbLine
10
4.0551181102362213
20
13.925928302142587
30
-0.11811023622046816
11
4.0551181102362222
21
29.24102366900053
31
-0.11811023622046223
0
ARC
5
276
100
AcDbEntity
8
0
100
AcDbCircle
10
4.960629979925832
20
28.763686943558817
30
-0.11811023622046117
40
1.0236220472440964
210
-4.1403209312523187e-20
220
-4.2700910223514461e-16
230
1
100
AcDbArc
50
90.056272487855594
51
152.20423454577912
0
LINE
5
277
100
AcDbEntity
8
0
100
AcDbLine
10
4.9596246397340877
20
29.78730849711037
30
-0.11811023622046074
11
7.6411187699208964
21
29.78730837476505
31
-0.11811023622046106
0
ARC
5
278
100
AcDbEntity
8
0
100
AcDbCircle
10
7.6411187699208964
20
28.763686327520951
30
-0.11811023622046152
40
1.0236220472440958
210
-7.971761266296597e-18
220
-4.6849536419092559e-16
230
1
100
AcDbArc
50
17.625234036700746
51
90
0
LINE
5
279
100
AcDbEntity
8
0
100
AcDbLine
10
8.6166893435096981
20
29.073628502050024
30
-0.11811023622046136
11
8.0078135393416208
21
25.826051465740921
31
-0.11811023622046204
0
LINE
5
280
100
AcDbEntity
8
0
100
AcDbLine
10
8.0078135393416208
20
25.826051465740921
30
-0.11811023622046204
11
7.6948096996142885
21
23.822467762739848
31
-0.11811023622046388
0
LINE
5
281
100
AcDbEntity
8
0
100
AcDbLine
10
7.6948096996142885
20
23.822467762739848
30
-0.11811023622046388
11
6.4594594715244789
21
13.93966601223377
31
-0.11811023622046851
0
LINE
5
282
100
AcDbEntity
8
0
100
AcDbLine
10
6.4594594715244789
20
13.93966601223377
30
-0.11811023622046851
11
4.0551181102362213
21
13.925928302142587
31
-0.11811023622046816
0
ENDSEC
0
SECTION
2
OBJECTS
0
DICTIONARY
5
C
100
AcDbDictionary
3
ACAD_GROUP
350
D
3
ACAD_MLINESTYLE
350
17
0
DICTIONARY
5
D
100
AcDbDictionary
0
DICTIONARY
5
1A
330
C
100
AcDbDictionary
0
DICTIONARY
5
17
100
AcDbDictionary
0
ENDSEC
0
EOF
