0
SECTION
2
HEADER
9
$INSUNITS
70
4
9
$ACADVER
1
AC1014
9
$HANDSEED
5
FFFF
0
ENDSEC
0
SECTION
2
TABLES
0
TABLE
2
VPORT
5
8
100
AcDbSymbolTable
0
ENDTAB
0
TABLE
2
LTYPE
5
5
100
AcDbSymbolTable
0
LTYPE
5
14
100
AcDbSymbolTableRecord
100
AcDbLinetypeTableRecord
2
BYBLOCK
70
0
0
LTYPE
5
15
100
AcDbSymbolTableRecord
100
AcDbLinetypeTableRecord
2
BYLAYER
70
0
0
ENDTAB
0
TABLE
2
LAYER
5
2
100
AcDbSymbolTable
70
2
0
LAYER
5
50
100
AcDbSymbolTableRecord
100
AcDbLayerTableRecord
2
0
70
0
6
CONTINUOUS
0
ENDTAB
0
TABLE
2
STYLE
5
3
100
AcDbSymbolTable
70
1
0
STYLE
5
11
100
AcDbSymbolTableRecord
100
AcDbTextStyleTableRecord
2
STANDARD
70
0
0
ENDTAB
0
TABLE
2
VIEW
5
6
100
AcDbSymbolTable
70
0
0
ENDTAB
0
TABLE
2
UCS
5
7
100
AcDbSymbolTable
70
0
0
ENDTAB
0
TABLE
2
APPID
5
9
100
AcDbSymbolTable
70
2
0
APPID
5
12
100
AcDbSymbolTableRecord
100
AcDbRegAppTableRecord
2
ACAD
70
0
0
ENDTAB
0
TABLE
2
DIMSTYLE
5
A
100
AcDbSymbolTable
70
1
0
ENDTAB
0
TABLE
2
BLOCK_RECORD
5
1
100
AcDbSymbolTable
70
1
0
BLOCK_RECORD
5
1F
100
AcDbSymbolTableRecord
100
AcDbBlockTableRecord
2
*MODEL_SPACE
0
BLOCK_RECORD
5
1B
100
AcDbSymbolTableRecord
100
AcDbBlockTableRecord
2
*PAPER_SPACE
0
ENDTAB
0
ENDSEC
0
SECTION
2
BLOCKS
0
BLOCK
5
20
100
AcDbEntity
100
AcDbBlockBegin
2
*MODEL_SPACE
0
ENDBLK
5
21
100
AcDbEntity
100
AcDbBlockEnd
0
BLOCK
5
1C
100
AcDbEntity
100
AcDbBlockBegin
2
*PAPER_SPACE
0
ENDBLK
5
1D
100
AcDbEntity
100
AcDbBlockEnd
0
ENDSEC
0
SECTION
2
ENTITIES
0
CIRCLE
5
100
100
AcDbEntity
8
0
100
AcDbCircle
10
-27.249999105930435
20
769.15736197832075
30
1.7763568394002505e-14
40
1.7500000000000249
210
-2.1198742457150027e-32
220
5.5511151231257839e-17
230
1
0
CIRCLE
5
101
100
AcDbEntity
8
0
100
AcDbCircle
10
-105.74999910593044
20
769.15736197832075
30
3.5527136788005009e-14
40
1.7500000000000249
210
-2.1198742457150027e-32
220
5.5511151231257839e-17
230
1
0
CIRCLE
5
102
100
AcDbEntity
8
0
100
AcDbCircle
10
-27.249999105930435
20
814.15736197832086
30
0
40
1.7499999999999982
210
-1.5035766635110869e-32
220
5.5511151231257839e-17
230
1
0
CIRCLE
5
103
100
AcDbEntity
8
0
100
AcDbCircle
10
-105.74999910593044
20
814.15736197832086
30
1.7763568394002505e-14
40
1.7500000000000075
210
-8.8727908130717144e-33
220
5.5511151231257827e-17
230
1
0
CIRCLE
5
104
100
AcDbEntity
8
0
100
AcDbCircle
10
-76.250000000000412
20
721.59977333410791
30
3.5527136788005009e-14
40
1.7499999999999982
210
-1.8117254546130447e-32
220
5.5511151231257839e-17
230
1
0
CIRCLE
5
105
100
AcDbEntity
8
0
100
AcDbCircle
10
-76.250000000000412
20
673.05465812059469
30
1.7763568394002505e-14
40
1.7499999999999982
210
-1.8117254546130447e-32
220
5.5511151231257839e-17
230
1
0
CIRCLE
5
106
100
AcDbEntity
8
0
100
AcDbCircle
10
-39.750000000000384
20
721.59977333410791
30
3.5527136788005009e-14
40
1.7499999999999982
210
-1.8117254546130447e-32
220
5.5511151231257839e-17
230
1
0
CIRCLE
5
107
100
AcDbEntity
8
0
100
AcDbCircle
10
-39.750000000000441
20
673.00954301516572
30
1.7763568394002505e-14
40
1.7499999999999982
210
-1.8117254546130447e-32
220
5.5511151231257839e-17
230
1
0
CIRCLE
5
108
100
AcDbEntity
8
0
100
AcDbCircle
10
-129.97433959034882
20
870.01436692250365
30
0
40
8.0000000000000071
210
-1.1954278724091295e-32
220
5.5511151231257839e-17
230
1
0
CIRCLE
5
109
100
AcDbEntity
8
0
100
AcDbCircle
10
-48.463899627213777
20
844.09471257112637
30
0
40
1.5000000000000038
210
-1.6390674130627149e-32
220
8.3266726846886741e-17
230
1
0
CIRCLE
5
110
100
AcDbEntity
8
0
100
AcDbCircle
10
-110.46389962721378
20
844.09471257112614
30
1.7763568394002505e-14
40
1.5000000000000038
210
-1.6390674130627149e-32
220
8.3266726846886741e-17
230
1
0
CIRCLE
5
111
100
AcDbEntity
8
0
100
AcDbCircle
10
-71.754011572753626
20
736.22875685983399
30
3.5527136788005009e-14
40
2.9999999999999809
210
-5.7913029020521377e-33
220
5.5511151231257839e-17
230
1
0
LWPOLYLINE
5
112
100
AcDbEntity
8
0
100
AcDbPolyline
90
4
70
1
43
0.0
10
-53.542172165384336
20
763.48352309246889
10
-53.542172165384365
20
774.48352309246854
10
-64.542172165384329
20
774.48352309246866
10
-64.542172165384358
20
763.48352309246911
0
LWPOLYLINE
5
113
100
AcDbEntity
8
0
100
AcDbPolyline
90
4
70
1
43
0.0
10
-68.542172165384343
20
778.48352309246945
10
-68.542172165384329
20
789.48352309246957
10
-79.542172165384358
20
789.48352309246957
10
-79.542172165384358
20
778.48352309246945
0
LWPOLYLINE
5
114
100
AcDbEntity
8
0
100
AcDbPolyline
90
4
70
1
43
0.0
10
-79.542172165384372
20
804.48352309246911
10
-79.542172165384386
20
793.48352309246911
10
-68.542172165384358
20
793.48352309246923
10
-68.542172165384358
20
804.48352309246911
0
LWPOLYLINE
5
115
100
AcDbEntity
8
0
100
AcDbPolyline
90
4
70
1
43
0.0
10
-53.542172165384358
20
819.48352309246934
10
-64.542172165384358
20
819.48352309246934
10
-64.542172165384386
20
808.48352309246934
10
-53.542172165384372
20
808.48352309246911
0
LWPOLYLINE
5
116
100
AcDbEntity
8
0
100
AcDbPolyline
90
4
70
1
43
0.0
10
-49.542172165384379
20
808.48352309246957
10
-38.542172165384379
20
808.4835230924698
10
-38.542172165384379
20
819.48352309246934
10
-49.542172165384379
20
819.48352309246945
0
LWPOLYLINE
5
117
100
AcDbEntity
8
0
100
AcDbPolyline
90
4
70
1
43
0.0
10
-83.542172165384358
20
793.48352309246911
10
-83.542172165384372
20
804.48352309246889
10
-94.542172165384386
20
804.483523092469
10
-94.542172165384414
20
793.48352309246911
0
LWPOLYLINE
5
118
100
AcDbEntity
8
0
100
AcDbPolyline
90
4
70
1
43
0.0
10
-64.542172165384358
20
789.48352309246911
10
-64.542172165384343
20
778.48352309246923
10
-53.542172165384365
20
778.48352309246923
10
-53.542172165384329
20
789.48352309246957
0
LWPOLYLINE
5
119
100
AcDbEntity
8
0
100
AcDbPolyline
90
4
70
1
43
0.0
10
-79.542172165384343
20
774.48352309246889
10
-79.542172165384329
20
763.48352309246923
10
-68.542172165384329
20
763.48352309246889
10
-68.542172165384329
20
774.48352309246866
0
CIRCLE
5
120
100
AcDbEntity
8
0
100
AcDbCircle
10
-48.754011572753619
20
736.22875685983422
30
3.5527136788005009e-14
40
2.9999999999999809
210
-5.7913029020521377e-33
220
5.5511151231257839e-17
230
1
0
CIRCLE
5
121
100
AcDbEntity
8
0
100
AcDbCircle
10
-87.263899627213775
20
844.09471257112614
30
0
40
3.7500000000000178
210
-2.7098149910325604e-33
220
5.5511151231257839e-17
230
1
0
CIRCLE
5
122
100
AcDbEntity
8
0
100
AcDbCircle
10
-25.263899627213746
20
844.09471257112637
30
0
40
3.7500000000000226
210
-1.3680859139594592e-32
220
2.7755575615628914e-17
230
1
0
CIRCLE
5
123
100
AcDbEntity
8
0
100
AcDbCircle
10
-56.263899627213753
20
844.09471257112637
30
0
40
3.7500000000000178
210
-2.7098149910325604e-33
220
5.5511151231257839e-17
230
1
0
CIRCLE
5
124
100
AcDbEntity
8
0
100
AcDbCircle
10
-118.26389962721377
20
844.09471257112614
30
1.7763568394002505e-14
40
3.7500000000000178
210
-2.7098149910325604e-33
220
5.5511151231257839e-17
230
1
0
CIRCLE
5
125
100
AcDbEntity
8
0
100
AcDbCircle
10
-94.754011572753626
20
736.22875685983399
30
3.5527136788005009e-14
40
2.9999999999999898
210
-7.5178833175554346e-33
220
2.7755575615628914e-17
230
1
0
LWPOLYLINE
5
126
100
AcDbEntity
8
0
100
AcDbPolyline
90
4
70
1
43
0.0
10
-49.542172165384358
20
763.48352309246923
10
-38.542172165384343
20
763.48352309246923
10
-38.542172165384365
20
774.48352309246866
10
-49.542172165384358
20
774.48352309246866
0
LWPOLYLINE
5
127
100
AcDbEntity
8
0
100
AcDbPolyline
90
4
70
1
43
0.0
10
-94.542172165384386
20
778.48352309246923
10
-83.542172165384315
20
778.48352309246923
10
-83.542172165384329
20
789.48352309246934
10
-94.542172165384386
20
789.48352309246934
0
LWPOLYLINE
5
128
100
AcDbEntity
8
0
100
AcDbPolyline
90
4
70
1
43
0.0
10
-53.542172165384358
20
793.48352309246923
10
-53.542172165384358
20
804.48352309246911
10
-64.5421721653844
20
804.48352309246889
10
-64.542172165384358
20
793.48352309246911
0
LWPOLYLINE
5
129
100
AcDbEntity
8
0
100
AcDbPolyline
90
4
70
1
43
0.0
10
-68.542172165384358
20
819.48352309246945
10
-79.542172165384372
20
819.48352309246957
10
-79.542172165384372
20
808.48352309246934
10
-68.542172165384372
20
808.48352309246923
0
LWPOLYLINE
5
130
100
AcDbEntity
8
0
100
AcDbPolyline
90
4
70
1
43
0.0
10
-38.542172165384343
20
804.48352309246934
10
-49.542172165384372
20
804.48352309246911
10
-49.542172165384358
20
793.48352309246923
10
-38.542172165384379
20
793.48352309246923
0
LWPOLYLINE
5
131
100
AcDbEntity
8
0
100
AcDbPolyline
90
4
70
1
43
0.0
10
-83.542172165384329
20
819.48352309246911
10
-94.542172165384358
20
819.48352309246934
10
-94.542172165384358
20
808.48352309246934
10
-83.542172165384358
20
808.48352309246923
0
LWPOLYLINE
5
132
100
AcDbEntity
8
0
100
AcDbPolyline
90
4
70
1
43
0.0
10
-49.542172165384379
20
778.48352309246923
10
-38.542172165384386
20
778.48352309246923
10
-38.542172165384372
20
789.48352309246945
10
-49.542172165384372
20
789.48352309246934
0
LWPOLYLINE
5
133
100
AcDbEntity
8
0
100
AcDbPolyline
90
4
70
1
43
0.0
10
-83.542172165384329
20
763.48352309246889
10
-83.542172165384358
20
774.48352309246854
10
-94.5421721653844
20
774.48352309246889
10
-94.542172165384386
20
763.48352309246877
0
CIRCLE
5
134
100
AcDbEntity
8
0
100
AcDbCircle
10
-25.754011572753633
20
736.22875685983422
30
1.7763568394002505e-14
40
2.9999999999999845
210
-7.5178833175554359e-33
220
2.775557561562892e-17
230
1
0
CIRCLE
5
135
100
AcDbEntity
8
0
100
AcDbCircle
10
-79.463899627213749
20
844.09471257112614
30
0
40
1.5000000000000038
210
-1.6390674130627149e-32
220
8.3266726846886741e-17
230
1
0
CIRCLE
5
136
100
AcDbEntity
8
0
100
AcDbCircle
10
-17.463899627213767
20
844.09471257112637
30
0
40
1.5000000000000038
210
-1.3309186219607574e-32
220
8.3266726846886741e-17
230
1
0
CIRCLE
5
137
100
AcDbEntity
8
0
100
AcDbCircle
10
-58.967973926595825
20
590.93957916521515
30
-1.7763568394002505e-14
40
1.2500000000000033
210
-6.9093547874544669e-19
220
2.7801148383784624e-17
230
1
0
LWPOLYLINE
5
138
100
AcDbEntity
8
0
100
AcDbPolyline
90
4
70
1
43
0.0
10
-39.668922485007585
20
654.2971216810206
10
-43.16559126054414
20
654.14445382524207
10
-40.286711694431887
20
588.20727120083916
10
-36.790042918895395
20
588.35993905661792
0
CIRCLE
5
139
100
AcDbEntity
8
0
100
AcDbCircle
10
-65.156031661679648
20
661.66940272972943
30
1.7763568394002505e-14
40
1.2500000000000033
210
1.037186850677933e-18
220
2.7952339496795176e-17
230
1
0
CIRCLE
5
140
100
AcDbEntity
8
0
100
AcDbCircle
10
-41.526305341189229
20
656.71840830708652
30
0
40
1.25
210
-3.4414500251983806e-19
220
2.7766992245410037e-17
230
1
0
LWPOLYLINE
5
141
100
AcDbEntity
8
0
100
AcDbPolyline
90
4
70
1
43
0.0
10
-60.929204005125513
20
593.27754336063595
10
-57.442522561804395
20
593.58258846025285
10
-63.194801583149889
20
659.33143853430795
10
-66.681483026471014
20
659.02639343469104
0
CIRCLE
5
142
100
AcDbEntity
8
0
100
AcDbCircle
10
-38.429328838250314
20
585.78598457477403
30
0
40
1.25
210
5.2239119928562678e-19
220
2.7804826033045203e-17
230
1
0
CIRCLE
5
143
100
AcDbEntity
8
0
100
AcDbCircle
10
-79.506619014941407
20
596.09317375565649
30
0
40
1.2499999999999929
210
-3.6612849131956081e-19
220
5.5941953036670994e-17
230
1
0
LWPOLYLINE
5
144
100
AcDbEntity
8
0
100
AcDbPolyline
90
4
70
1
43
0.0
10
-19.640683749904852
20
583.13238998433292
10
-16.140683749904859
20
583.13238998433303
10
-16.140683749904873
20
649.1323899843328
10
-19.640683749904866
20
649.13238998433303
0
CIRCLE
5
145
100
AcDbEntity
8
0
100
AcDbCircle
10
-88.773978662565142
20
666.48575891319763
30
-1.7763568394002505e-14
40
1.2499999999999929
210
-3.6612849131956081e-19
220
5.5941953036670994e-17
230
1
0
CIRCLE
5
146
100
AcDbEntity
8
0
100
AcDbCircle
10
-17.890683749904838
20
651.63238998433326
30
1.7763568394002505e-14
40
1.25
210
-1.5035766635110921e-32
220
5.5511151231257839e-17
230
1
0
LWPOLYLINE
5
147
100
AcDbEntity
8
0
100
AcDbPolyline
90
4
70
1
43
0.0
10
-90.182691689419102
20
663.77872592337758
10
-81.567963002895652
20
598.34336507270586
10
-78.097905988087334
20
598.80020674547598
10
-86.712634674610797
20
664.23556759614803
0
CIRCLE
5
148
100
AcDbEntity
8
0
100
AcDbCircle
10
-17.890683749904881
20
580.63238998433303
30
0
40
1.25
210
-1.1954278724091292e-32
220
5.5511151231257839e-17
230
1
0
LWPOLYLINE
5
149
100
AcDbEntity
8
0
100
AcDbPolyline
90
2
70
1
43
0.0
10
-5.9976921786064743
20
539.750729643309
10
-5.9976558331925878
20
540.27781664710619
42
11.294783635855977
0
CIRCLE
5
150
100
AcDbEntity
8
0
100
AcDbCircle
10
-82.474340819694675
20
540.0143749691307
30
0
40
1.500000022351742
210
5.3217720248176415e-32
220
5.5511151231257839e-17
230
1
0
CIRCLE
5
151
100
AcDbEntity
8
0
100
AcDbCircle
10
-109.2859854185093
20
711.42403648151969
30
1.7763568394002505e-14
40
1.5000000000000038
210
-1.5795841366562582e-32
220
8.3266726846886741e-17
230
1
0
CIRCLE
5
152
100
AcDbEntity
8
0
100
AcDbCircle
10
-7.9859854185091397
20
711.52403648151994
30
0
40
1.5000000000000004
210
-1.2841676844305755e-32
220
5.5511151231257839e-17
230
1
0
CIRCLE
5
153
100
AcDbEntity
8
0
100
AcDbCircle
10
-138.55168765340792
20
893.11780465944923
30
0
40
1.5000000000000038
210
-1.9069922272019966e-32
220
8.3266726846886741e-17
230
1
0
CIRCLE
5
154
100
AcDbEntity
8
0
100
AcDbCircle
10
-106.7859854185092
20
695.72403648151976
30
0
40
1.5000000000000038
210
-1.8299550294264995e-32
220
8.3266726846886741e-17
230
1
0
CIRCLE
5
155
100
AcDbEntity
8
0
100
AcDbCircle
10
-7.9859854185091947
20
695.52403648152006
30
1.7763568394002505e-14
40
1.5000000000000004
210
-1.3997234810937407e-32
220
5.5511151231257839e-17
230
1
0
CIRCLE
5
156
100
AcDbEntity
8
0
100
AcDbCircle
10
-13.551687653407935
20
893.11780465944935
30
0
40
1.4999999999999993
210
-2.0352803627415283e-32
220
5.5511151231257827e-17
230
1
0
LWPOLYLINE
5
157
100
AcDbEntity
8
0
100
AcDbPolyline
90
8
70
1
43
0.0
10
-112.84554633345476
20
703.50443406736895
10
-147.62310394211954
20
876.96478054460476
10
-150.1789206417703
20
888.31327128501312
42
-0.33667711073814732
10
-125.98410948565555
20
906.66503844694967
10
-26.059694069730675
20
906.69571714759286
42
-0.27857566717652177
10
-2.9733569446581671
20
892.76063116482055
10
-3.0000000000000959
20
503.28233477345827
10
-83.055509198523794
20
503.2879475700517
42
0.021955965015763922
0
LWPOLYLINE
5
158
100
AcDbEntity
8
0
100
AcDbPolyline
90
2
70
1
43
0.0
10
-147.66022717256473
20
877.14994042521187
42
-0.0014831267421919357
10
-147.68600691866314
20
877.27852230383019
0
CIRCLE
5
159
100
AcDbEntity
8
0
100
AcDbCircle
10
-27.249999105930435
20
769.15736197832075
30
-2.9999999999996518
40
1.7500000000000246
210
3.2816312933011625e-17
220
-5.2735593669694926e-16
230
1
0
CIRCLE
5
160
100
AcDbEntity
8
0
100
AcDbCircle
10
-105.74999910593044
20
769.15736197832064
30
-2.9999999999996518
40
1.7500000000000246
210
3.2816312933011625e-17
220
-5.2735593669694926e-16
230
1
0
CIRCLE
5
161
100
AcDbEntity
8
0
100
AcDbCircle
10
-27.249999105930435
20
814.15736197832086
30
-2.9999999999997229
40
1.749999999999998
210
3.2816312933011619e-17
220
-5.2735593669694926e-16
230
1
0
CIRCLE
5
162
100
AcDbEntity
8
0
100
AcDbCircle
10
-105.74999910593044
20
814.15736197832075
30
-2.9999999999997051
40
1.7500000000000069
210
3.2816312933011625e-17
220
-5.2735593669694926e-16
230
1
0
CIRCLE
5
163
100
AcDbEntity
8
0
100
AcDbCircle
10
-76.250000000000412
20
721.59977333410779
30
-2.9999999999996163
40
1.749999999999998
210
3.2816312933011687e-17
220
-5.2735593669694926e-16
230
1
0
CIRCLE
5
164
100
AcDbEntity
8
0
100
AcDbCircle
10
-76.250000000000412
20
673.05465812059469
30
-2.999999999999563
40
1.749999999999998
210
3.2816312933011687e-17
220
-5.2735593669694926e-16
230
1
0
CIRCLE
5
165
100
AcDbEntity
8
0
100
AcDbCircle
10
-39.750000000000384
20
721.59977333410779
30
-2.9999999999995985
40
1.749999999999998
210
3.2816312933011687e-17
220
-5.2735593669694926e-16
230
1
0
CIRCLE
5
166
100
AcDbEntity
8
0
100
AcDbCircle
10
-39.750000000000441
20
673.00954301516572
30
-2.9999999999995808
40
1.749999999999998
210
3.2816312933011687e-17
220
-5.2735593669694926e-16
230
1
0
CIRCLE
5
167
100
AcDbEntity
8
0
100
AcDbCircle
10
-129.97433959034882
20
870.01436692250365
30
-2.9999999999994387
40
8.0000000000000053
210
3.281631293301181e-17
220
-5.2735593669694926e-16
230
1
0
CIRCLE
5
168
100
AcDbEntity
8
0
100
AcDbCircle
10
-48.463899627213785
20
844.09471257112637
30
-2.9999999999997229
40
1.5000000000000033
210
3.2816312933011637e-17
220
-5.2735593669694926e-16
230
1
0
CIRCLE
5
169
100
AcDbEntity
8
0
100
AcDbCircle
10
-110.46389962721378
20
844.09471257112614
30
-2.9999999999997229
40
1.5000000000000033
210
3.2816312933011637e-17
220
-5.2735593669694926e-16
230
1
0
CIRCLE
5
170
100
AcDbEntity
8
0
100
AcDbCircle
10
-71.754011572753626
20
736.22875685983399
30
-2.9999999999996163
40
2.99999999999998
210
3.2816312933011637e-17
220
-5.2735593669694926e-16
230
1
0
LINE
5
171
100
AcDbEntity
8
0
100
AcDbLine
10
-53.542172165384336
20
763.48352309246923
30
-2.9999999999995808
11
-53.542172165384365
21
774.48352309246889
31
-2.9999999999995741
0
LINE
5
172
100
AcDbEntity
8
0
100
AcDbLine
10
-53.542172165384365
20
774.48352309246889
30
-2.9999999999995741
11
-64.542172165384343
21
774.48352309246866
31
-2.9999999999995448
0
LINE
5
173
100
AcDbEntity
8
0
100
AcDbLine
10
-64.542172165384343
20
774.48352309246866
30
-2.9999999999995448
11
-64.542172165384343
21
763.48352309246889
31
-2.9999999999995532
0
LINE
5
174
100
AcDbEntity
8
0
100
AcDbLine
10
-64.542172165384343
20
763.48352309246889
30
-2.9999999999995532
11
-53.542172165384336
21
763.48352309246923
31
-2.9999999999995808
0
LINE
5
175
100
AcDbEntity
8
0
100
AcDbLine
10
-68.542172165384343
20
778.48352309246934
30
-2.9999999999995808
11
-68.542172165384329
21
789.48352309246945
31
-2.9999999999995697
0
LINE
5
176
100
AcDbEntity
8
0
100
AcDbLine
10
-68.542172165384329
20
789.48352309246945
30
-2.9999999999995697
11
-79.542172165384358
21
789.48352309246945
31
-2.9999999999995803
0
LINE
5
177
100
AcDbEntity
8
0
100
AcDbLine
10
-79.542172165384358
20
789.48352309246945
30
-2.9999999999995803
11
-79.542172165384358
21
778.48352309246934
31
-2.9999999999995919
0
LINE
5
178
100
AcDbEntity
8
0
100
AcDbLine
10
-79.542172165384358
20
778.48352309246934
30
-2.9999999999995919
11
-68.542172165384343
21
778.48352309246934
31
-2.9999999999995808
0
LINE
5
179
100
AcDbEntity
8
0
100
AcDbLine
10
-79.542172165384372
20
804.48352309246911
30
-2.9999999999995275
11
-79.542172165384386
21
793.48352309246911
31
-2.9999999999995386
0
LINE
5
180
100
AcDbEntity
8
0
100
AcDbLine
10
-79.542172165384386
20
793.48352309246911
30
-2.9999999999995386
11
-68.542172165384358
21
793.48352309246934
31
-2.9999999999995444
0
LINE
5
181
100
AcDbEntity
8
0
100
AcDbLine
10
-68.542172165384358
20
793.48352309246934
30
-2.9999999999995444
11
-68.542172165384358
21
804.48352309246945
31
-2.9999999999995537
0
LINE
5
182
100
AcDbEntity
8
0
100
AcDbLine
10
-68.542172165384358
20
804.48352309246945
30
-2.9999999999995537
11
-79.542172165384372
21
804.48352309246911
31
-2.9999999999995275
0
LINE
5
183
100
AcDbEntity
8
0
100
AcDbLine
10
-53.542172165384365
20
819.48352309246945
30
-2.9999999999995275
11
-64.542172165384358
21
819.48352309246945
31
-2.9999999999995186
0
LINE
5
184
100
AcDbEntity
8
0
100
AcDbLine
10
-64.542172165384358
20
819.48352309246945
30
-2.9999999999995186
11
-64.542172165384386
21
808.48352309246923
31
-2.9999999999995142
0
LINE
5
185
100
AcDbEntity
8
0
100
AcDbLine
10
-64.542172165384386
20
808.48352309246923
30
-2.9999999999995142
11
-53.542172165384358
21
808.48352309246934
31
-2.9999999999995635
0
LINE
5
186
100
AcDbEntity
8
0
100
AcDbLine
10
-53.542172165384358
20
808.48352309246934
30
-2.9999999999995635
11
-53.542172165384365
21
819.48352309246945
31
-2.9999999999995275
0
LINE
5
187
100
AcDbEntity
8
0
100
AcDbLine
10
-49.542172165384379
20
808.48352309246934
30
-2.9999999999995453
11
-38.542172165384379
21
808.48352309246945
31
-2.9999999999995444
0
LINE
5
188
100
AcDbEntity
8
0
100
AcDbLine
10
-38.542172165384379
20
808.48352309246945
30
-2.9999999999995444
11
-38.542172165384372
21
819.48352309246957
31
-2.9999999999995359
0
LINE
5
189
100
AcDbEntity
8
0
100
AcDbLine
10
-38.542172165384372
20
819.48352309246957
30
-2.9999999999995359
11
-49.542172165384386
21
819.48352309246945
31
-2.9999999999995093
0
LINE
5
190
100
AcDbEntity
8
0
100
AcDbLine
10
-49.542172165384386
20
819.48352309246945
30
-2.9999999999995093
11
-49.542172165384379
21
808.48352309246934
31
-2.9999999999995453
0
LINE
5
191
100
AcDbEntity
8
0
100
AcDbLine
10
-83.542172165384358
20
793.48352309246923
30
-2.9999999999995453
11
-83.542172165384372
21
804.483523092469
31
-2.9999999999995373
0
LINE
5
192
100
AcDbEntity
8
0
100
AcDbLine
10
-83.542172165384372
20
804.483523092469
30
-2.9999999999995373
11
-94.542172165384386
21
804.483523092469
31
-2.9999999999995435
0
LINE
5
193
100
AcDbEntity
8
0
100
AcDbLine
10
-94.542172165384386
20
804.483523092469
30
-2.9999999999995435
11
-94.542172165384414
21
793.48352309246923
31
-2.9999999999995546
0
LINE
5
194
100
AcDbEntity
8
0
100
AcDbLine
10
-94.542172165384414
20
793.48352309246923
30
-2.9999999999995546
11
-83.542172165384358
21
793.48352309246923
31
-2.9999999999995453
0
LINE
5
195
100
AcDbEntity
8
0
100
AcDbLine
10
-64.542172165384358
20
789.48352309246911
30
-2.9999999999995808
11
-64.542172165384343
21
778.48352309246923
31
-2.9999999999995901
0
LINE
5
196
100
AcDbEntity
8
0
100
AcDbLine
10
-64.542172165384343
20
778.48352309246923
30
-2.9999999999995901
11
-53.542172165384358
21
778.48352309246889
31
-2.9999999999995386
0
LINE
5
197
100
AcDbEntity
8
0
100
AcDbLine
10
-53.542172165384358
20
778.48352309246889
30
-2.9999999999995386
11
-53.542172165384336
21
789.48352309246945
31
-2.9999999999995843
0
LINE
5
198
100
AcDbEntity
8
0
100
AcDbLine
10
-53.542172165384336
20
789.48352309246945
30
-2.9999999999995843
11
-64.542172165384358
21
789.48352309246911
31
-2.9999999999995808
0
LINE
5
199
100
AcDbEntity
8
0
100
AcDbLine
10
-79.542172165384343
20
774.483523092469
30
-2.9999999999995808
11
-79.542172165384329
21
763.48352309246934
31
-2.9999999999995874
0
LINE
5
200
100
AcDbEntity
8
0
100
AcDbLine
10
-79.542172165384329
20
763.48352309246934
30
-2.9999999999995874
11
-68.542172165384329
21
763.48352309246911
31
-2.9999999999995648
0
LINE
5
201
100
AcDbEntity
8
0
100
AcDbLine
10
-68.542172165384329
20
763.48352309246911
30
-2.9999999999995648
11
-68.542172165384329
21
774.48352309246889
31
-2.9999999999995741
0
LINE
5
202
100
AcDbEntity
8
0
100
AcDbLine
10
-68.542172165384329
20
774.48352309246889
30
-2.9999999999995741
11
-79.542172165384343
21
774.483523092469
31
-2.9999999999995808
0
CIRCLE
5
203
100
AcDbEntity
8
0
100
AcDbCircle
10
-48.754011572753619
20
736.22875685983399
30
-2.9999999999996163
40
2.99999999999998
210
3.2816312933011637e-17
220
-5.2735593669694926e-16
230
1
0
CIRCLE
5
204
100
AcDbEntity
8
0
100
AcDbCircle
10
-87.263899627213775
20
844.09471257112614
30
-2.9999999999997051
40
3.7500000000000169
210
3.2816312933011637e-17
220
-5.2735593669694926e-16
230
1
0
CIRCLE
5
205
100
AcDbEntity
8
0
100
AcDbCircle
10
-25.263899627213746
20
844.09471257112637
30
-2.9999999999997229
40
3.7500000000000213
210
-2.3265097349185971e-17
220
-5.2735593669694926e-16
230
1
0
CIRCLE
5
206
100
AcDbEntity
8
0
100
AcDbCircle
10
-56.26389962721376
20
844.09471257112637
30
-2.9999999999997229
40
3.7500000000000169
210
3.2816312933011637e-17
220
-5.2735593669694926e-16
230
1
0
CIRCLE
5
207
100
AcDbEntity
8
0
100
AcDbCircle
10
-118.26389962721377
20
844.09471257112614
30
-2.9999999999997229
40
3.7500000000000169
210
3.2816312933011637e-17
220
-5.2735593669694926e-16
230
1
0
CIRCLE
5
208
100
AcDbEntity
8
0
100
AcDbCircle
10
-94.754011572753626
20
736.22875685983399
30
-2.9999999999996163
40
2.9999999999999889
210
3.2816312933011625e-17
220
-5.2735593669694926e-16
230
1
0
LINE
5
209
100
AcDbEntity
8
0
100
AcDbLine
10
-49.542172165384358
20
763.48352309246923
30
-2.999999999999563
11
-38.542172165384343
21
763.48352309246923
31
-2.9999999999995635
0
LINE
5
210
100
AcDbEntity
8
0
100
AcDbLine
10
-38.542172165384343
20
763.48352309246923
30
-2.9999999999995635
11
-38.542172165384365
21
774.48352309246889
31
-2.9999999999995564
0
LINE
5
211
100
AcDbEntity
8
0
100
AcDbLine
10
-38.542172165384365
20
774.48352309246889
30
-2.9999999999995564
11
-49.542172165384372
21
774.48352309246889
31
-2.9999999999995817
0
LINE
5
212
100
AcDbEntity
8
0
100
AcDbLine
10
-49.542172165384372
20
774.48352309246889
30
-2.9999999999995817
11
-49.542172165384358
21
763.48352309246923
31
-2.999999999999563
0
LINE
5
213
100
AcDbEntity
8
0
100
AcDbLine
10
-94.542172165384386
20
778.48352309246911
30
-2.9999999999995453
11
-83.542172165384315
21
778.48352309246911
31
-2.9999999999995457
0
LINE
5
214
100
AcDbEntity
8
0
100
AcDbLine
10
-83.542172165384315
20
778.48352309246911
30
-2.9999999999995457
11
-83.542172165384329
21
789.48352309246911
31
-2.9999999999995342
0
LINE
5
215
100
AcDbEntity
8
0
100
AcDbLine
10
-83.542172165384329
20
789.48352309246911
30
-2.9999999999995342
11
-94.542172165384386
21
789.48352309246911
31
-2.9999999999995448
0
LINE
5
216
100
AcDbEntity
8
0
100
AcDbLine
10
-94.542172165384386
20
789.48352309246911
30
-2.9999999999995448
11
-94.542172165384386
21
778.48352309246911
31
-2.9999999999995453
0
LINE
5
217
100
AcDbEntity
8
0
100
AcDbLine
10
-53.542172165384358
20
793.48352309246923
30
-2.9999999999995453
11
-53.542172165384358
21
804.48352309246911
31
-2.9999999999995359
0
LINE
5
218
100
AcDbEntity
8
0
100
AcDbLine
10
-53.542172165384358
20
804.48352309246911
30
-2.9999999999995359
11
-64.5421721653844
21
804.483523092469
31
-2.9999999999995461
0
LINE
5
219
100
AcDbEntity
8
0
100
AcDbLine
10
-64.5421721653844
20
804.483523092469
30
-2.9999999999995461
11
-64.542172165384343
21
793.48352309246911
31
-2.9999999999995532
0
LINE
5
220
100
AcDbEntity
8
0
100
AcDbLine
10
-64.542172165384343
20
793.48352309246911
30
-2.9999999999995532
11
-53.542172165384358
21
793.48352309246923
31
-2.9999999999995453
0
LINE
5
221
100
AcDbEntity
8
0
100
AcDbLine
10
-68.542172165384358
20
819.48352309246945
30
-2.9999999999995097
11
-79.542172165384372
21
819.48352309246957
31
-2.9999999999995079
0
LINE
5
222
100
AcDbEntity
8
0
100
AcDbLine
10
-79.542172165384372
20
819.48352309246957
30
-2.9999999999995079
11
-79.542172165384386
21
808.48352309246945
31
-2.9999999999995581
0
LINE
5
223
100
AcDbEntity
8
0
100
AcDbLine
10
-79.542172165384386
20
808.48352309246945
30
-2.9999999999995581
11
-68.542172165384358
21
808.48352309246934
31
-2.9999999999995457
0
LINE
5
224
100
AcDbEntity
8
0
100
AcDbLine
10
-68.542172165384358
20
808.48352309246934
30
-2.9999999999995457
11
-68.542172165384358
21
819.48352309246945
31
-2.9999999999995097
0
LINE
5
225
100
AcDbEntity
8
0
100
AcDbLine
10
-38.542172165384351
20
804.48352309246945
30
-2.999999999999563
11
-49.542172165384372
21
804.48352309246934
31
-2.9999999999995639
0
LINE
5
226
100
AcDbEntity
8
0
100
AcDbLine
10
-49.542172165384372
20
804.48352309246934
30
-2.9999999999995639
11
-49.542172165384358
21
793.48352309246923
31
-2.9999999999995461
0
LINE
5
227
100
AcDbEntity
8
0
100
AcDbLine
10
-49.542172165384358
20
793.48352309246923
30
-2.9999999999995461
11
-38.542172165384379
21
793.48352309246934
31
-2.9999999999995648
0
LINE
5
228
100
AcDbEntity
8
0
100
AcDbLine
10
-38.542172165384379
20
793.48352309246934
30
-2.9999999999995648
11
-38.542172165384351
21
804.48352309246945
31
-2.999999999999563
0
LINE
5
229
100
AcDbEntity
8
0
100
AcDbLine
10
-83.542172165384329
20
819.48352309246945
30
-2.9999999999995453
11
-94.542172165384358
21
819.48352309246957
31
-2.9999999999995519
0
LINE
5
230
100
AcDbEntity
8
0
100
AcDbLine
10
-94.542172165384358
20
819.48352309246957
30
-2.9999999999995519
11
-94.542172165384358
21
808.48352309246923
31
-2.999999999999523
0
LINE
5
231
100
AcDbEntity
8
0
100
AcDbLine
10
-94.542172165384358
20
808.48352309246923
30
-2.999999999999523
11
-83.542172165384358
21
808.48352309246934
31
-2.9999999999995635
0
LINE
5
232
100
AcDbEntity
8
0
100
AcDbLine
10
-83.542172165384358
20
808.48352309246934
30
-2.9999999999995635
11
-83.542172165384329
21
819.48352309246945
31
-2.9999999999995453
0
LINE
5
233
100
AcDbEntity
8
0
100
AcDbLine
10
-49.542172165384379
20
778.48352309246911
30
-2.9999999999995453
11
-38.542172165384386
21
778.48352309246911
31
-2.9999999999995457
0
LINE
5
234
100
AcDbEntity
8
0
100
AcDbLine
10
-38.542172165384386
20
778.48352309246911
30
-2.9999999999995457
11
-38.542172165384372
21
789.48352309246934
31
-2.9999999999995324
0
LINE
5
235
100
AcDbEntity
8
0
100
AcDbLine
10
-38.542172165384372
20
789.48352309246934
30
-2.9999999999995324
11
-49.542172165384372
21
789.48352309246945
31
-2.9999999999995817
0
LINE
5
236
100
AcDbEntity
8
0
100
AcDbLine
10
-49.542172165384372
20
789.48352309246945
30
-2.9999999999995817
11
-49.542172165384379
21
778.48352309246911
31
-2.9999999999995453
0
LINE
5
237
100
AcDbEntity
8
0
100
AcDbLine
10
-83.542172165384329
20
763.48352309246889
30
-2.9999999999995453
11
-83.542172165384358
21
774.48352309246854
31
-2.9999999999995386
0
LINE
5
238
100
AcDbEntity
8
0
100
AcDbLine
10
-83.542172165384358
20
774.48352309246854
30
-2.9999999999995386
11
-94.5421721653844
21
774.48352309246889
31
-2.999999999999579
0
LINE
5
239
100
AcDbEntity
8
0
100
AcDbLine
10
-94.5421721653844
20
774.48352309246889
30
-2.999999999999579
11
-94.542172165384386
21
763.48352309246877
31
-2.9999999999995546
0
LINE
5
240
100
AcDbEntity
8
0
100
AcDbLine
10
-94.542172165384386
20
763.48352309246877
30
-2.9999999999995546
11
-83.542172165384329
21
763.48352309246889
31
-2.9999999999995453
0
CIRCLE
5
241
100
AcDbEntity
8
0
100
AcDbCircle
10
-25.754011572753633
20
736.22875685983399
30
-2.9999999999996163
40
2.9999999999999845
210
-2.3265097349185993e-17
220
-5.2735593669694926e-16
230
1
0
CIRCLE
5
242
100
AcDbEntity
8
0
100
AcDbCircle
10
-79.463899627213763
20
844.09471257112614
30
-2.9999999999997051
40
1.5000000000000033
210
3.2816312933011637e-17
220
-5.2735593669694926e-16
230
1
0
CIRCLE
5
243
100
AcDbEntity
8
0
100
AcDbCircle
10
-17.463899627213767
20
844.09471257112637
30
-2.9999999999997229
40
1.5000000000000033
210
4.7756077919128231e-18
220
-5.2735593669694926e-16
230
1
0
CIRCLE
5
244
100
AcDbEntity
8
0
100
AcDbCircle
10
-58.967973926595825
20
590.93957916521515
30
-2.9999999999994387
40
1.2500000000000033
210
2.0909653279975077e-16
220
-5.3893837190549996e-16
230
1
0
LINE
5
245
100
AcDbEntity
8
0
100
AcDbLine
10
-39.668922485007585
20
654.29712168102037
30
-3.0000000000000249
11
-43.16559126054414
21
654.14445382524195
31
-3.0000000000000404
0
LINE
5
246
100
AcDbEntity
8
0
100
AcDbLine
10
-43.16559126054414
20
654.14445382524195
30
-3.0000000000000404
11
-40.286711694431894
21
588.20727120083927
31
-2.9999999999999849
0
LINE
5
247
100
AcDbEntity
8
0
100
AcDbLine
10
-40.286711694431894
20
588.20727120083927
30
-2.9999999999999849
11
-36.790042918895395
21
588.35993905661803
31
-2.9999999999999956
0
LINE
5
248
100
AcDbEntity
8
0
100
AcDbLine
10
-36.790042918895395
20
588.35993905661803
30
-2.9999999999999956
11
-39.668922485007585
21
654.29712168102037
31
-3.0000000000000249
0
CIRCLE
5
249
100
AcDbEntity
8
0
100
AcDbCircle
10
-65.156031661679648
20
661.66940272972965
30
-3.0000000000005222
40
1.2500000000000033
210
-1.8058941033079094e-15
220
-7.1522720967580282e-16
230
1
0
CIRCLE
5
250
100
AcDbEntity
8
0
100
AcDbCircle
10
-41.526305341189229
20
656.71840830708629
30
-3.0000000000006111
40
1.2499999999999998
210
-8.8945967761897375e-16
220
-5.6669298907755191e-16
230
1
0
LINE
5
251
100
AcDbEntity
8
0
100
AcDbLine
10
-60.929204005125506
20
593.27754336063595
30
-3.0000000000000071
11
-57.442522561804388
21
593.58258846025285
31
-3.000000000000012
0
LINE
5
252
100
AcDbEntity
8
0
100
AcDbLine
10
-57.442522561804388
20
593.58258846025285
30
-3.000000000000012
11
-63.194801583149896
21
659.33143853430784
31
-3.0000000000000049
0
LINE
5
253
100
AcDbEntity
8
0
100
AcDbLine
10
-63.194801583149896
20
659.33143853430784
30
-3.0000000000000049
11
-66.681483026471014
21
659.02639343469116
31
-2.9999999999999929
0
LINE
5
254
100
AcDbEntity
8
0
100
AcDbLine
10
-66.681483026471014
20
659.02639343469116
30
-2.9999999999999929
11
-60.929204005125506
21
593.27754336063595
31
-3.0000000000000071
0
CIRCLE
5
255
100
AcDbEntity
8
0
100
AcDbCircle
10
-38.429328838250314
20
585.78598457477403
30
-2.9999999999994387
40
1.2499999999999998
210
1.1918846128258735e-16
220
-5.2265446027021909e-16
230
1
0
CIRCLE
5
256
100
AcDbEntity
8
0
100
AcDbCircle
10
-79.506619014941407
20
596.09317375565649
30
-2.9999999999994564
40
1.2499999999999927
210
2.9260157450836529e-16
220
-5.2137981958788589e-16
230
1
0
LINE
5
257
100
AcDbEntity
8
0
100
AcDbLine
10
-19.640683749904852
20
583.1323899843328
30
-3.0000000000000249
11
-16.140683749904859
21
583.13238998433303
31
-3.000000000000032
0
LINE
5
258
100
AcDbEntity
8
0
100
AcDbLine
10
-16.140683749904859
20
583.13238998433303
30
-3.000000000000032
11
-16.140683749904873
21
649.1323899843328
31
-3.0000000000000093
0
LINE
5
259
100
AcDbEntity
8
0
100
AcDbLine
10
-16.140683749904873
20
649.1323899843328
30
-3.0000000000000093
11
-19.640683749904863
21
649.1323899843328
31
-3.0000000000000071
0
LINE
5
260
100
AcDbEntity
8
0
100
AcDbLine
10
-19.640683749904863
20
649.1323899843328
30
-3.0000000000000071
11
-19.640683749904852
21
583.1323899843328
31
-3.0000000000000249
0
CIRCLE
5
261
100
AcDbEntity
8
0
100
AcDbCircle
10
-88.773978662565142
20
666.48575891319751
30
-3.0000000000003624
40
1.2499999999999927
210
-2.7068738127176825e-15
220
-9.1626824576805718e-16
230
1
0
CIRCLE
5
262
100
AcDbEntity
8
0
100
AcDbCircle
10
-17.890683749904838
20
651.63238998433314
30
-3.0000000000007176
40
1.2499999999999998
210
3.2816312933014041e-17
220
-5.2735593669694926e-16
230
1
0
LINE
5
263
100
AcDbEntity
8
0
100
AcDbLine
10
-90.182691689419116
20
663.77872592337758
30
-3.0000000000000426
11
-81.567963002895681
21
598.34336507270575
31
-2.9999999999999782
0
LINE
5
264
100
AcDbEntity
8
0
100
AcDbLine
10
-81.567963002895681
20
598.34336507270575
30
-2.9999999999999782
11
-78.097905988087334
21
598.80020674547598
31
-2.9999999999999938
0
LINE
5
265
100
AcDbEntity
8
0
100
AcDbLine
10
-78.097905988087334
20
598.80020674547598
30
-2.9999999999999938
11
-86.712634674610769
21
664.23556759614803
31
-3.0000000000000671
0
LINE
5
266
100
AcDbEntity
8
0
100
AcDbLine
10
-86.712634674610769
20
664.23556759614803
30
-3.0000000000000671
11
-90.182691689419116
21
663.77872592337758
31
-3.0000000000000426
0
CIRCLE
5
267
100
AcDbEntity
8
0
100
AcDbCircle
10
-17.890683749904881
20
580.63238998433303
30
-2.9999999999994031
40
1.2499999999999998
210
3.2816312933011563e-17
220
-5.2735593669694926e-16
230
1
0
LINE
5
268
100
AcDbEntity
8
0
100
AcDbLine
10
-5.9976921786064761
20
539.75072964330911
30
-2.9999999999997229
11
-5.9976558331925904
21
540.27781664710631
31
-2.9999999999997309
0
ARC
5
269
100
AcDbEntity
8
0
100
AcDbCircle
10
-7.4743408196946728
20
540.0143749691307
30
-2.9999999999996874
40
1.5000000223517529
210
2.8514619807465519e-14
220
4.5231529196082537e-15
230
1
100
AcDbArc
50
10.115193242230365
51
349.8769050686721
0
CIRCLE
5
270
100
AcDbEntity
8
0
100
AcDbCircle
10
-82.474340819694675
20
540.01437496913059
30
-2.9999999999996341
40
1.5000000223517416
210
7.0579323631937715e-16
220
-5.2735593669694916e-16
230
1
0
CIRCLE
5
271
100
AcDbEntity
8
0
100
AcDbCircle
10
-109.2859854185093
20
711.42403648152003
30
-2.9999999999994387
40
1.5000000000000033
210
3.2816312933011847e-17
220
-5.2735593669694926e-16
230
1
0
CIRCLE
5
272
100
AcDbEntity
8
0
100
AcDbCircle
10
-7.9859854185091397
20
711.52403648152017
30
-2.9999999999994387
40
1.5
210
3.2816312933011779e-17
220
-5.2735593669694926e-16
230
1
0
CIRCLE
5
273
100
AcDbEntity
8
0
100
AcDbCircle
10
-138.55168765340792
20
893.11780465944935
30
-2.9999999999954596
40
1.5000000000000033
210
3.2816312933011779e-17
220
-5.2735593669694926e-16
230
1
0
CIRCLE
5
274
100
AcDbEntity
8
0
100
AcDbCircle
10
-106.7859854185092
20
695.72403648151999
30
-2.9999999999997584
40
1.5000000000000033
210
3.2816312933011773e-17
220
-5.2735593669694926e-16
230
1
0
CIRCLE
5
275
100
AcDbEntity
8
0
100
AcDbCircle
10
-7.9859854185091947
20
695.52403648151994
30
-2.9999999999997584
40
1.5
210
3.2816312933011767e-17
220
-5.2735593669694926e-16
230
1
0
CIRCLE
5
276
100
AcDbEntity
8
0
100
AcDbCircle
10
-13.551687653407935
20
893.11780465944935
30
-2.9999999999954596
40
1.4999999999999989
210
3.2816312933011767e-17
220
-5.2735593669694926e-16
230
1
0
LINE
5
277
100
AcDbEntity
8
0
100
AcDbLine
10
-147.66022717256047
20
877.14994042521187
30
-2.9999999999994742
11
-147.68600691866317
21
877.27852230382973
31
-2.999999999999476
0
ARC
5
278
100
AcDbEntity
8
0
100
AcDbCircle
10
-125.99904291790563
20
881.55972805453212
30
-2.9999999999994742
40
22.105500000000017
210
2.8224444482345838e-17
220
-5.3196159703235653e-16
230
1
100
AcDbArc
50
191.16712784136047
51
191.50703520331589
0
LINE
5
279
100
AcDbEntity
8
0
100
AcDbLine
10
-147.62310394211954
20
876.96478054460454
30
-2.999999999999492
11
-150.1789206417705
21
888.313271285013
31
-2.9999999999994884
0
ARC
5
280
100
AcDbEntity
8
0
100
AcDbCircle
10
-125.99904291790563
20
881.55972805453212
30
-2.9999999999994742
40
25.105314833855946
210
3.2793557846433264e-17
220
-5.52802467336966e-16
230
1
100
AcDbArc
50
89.965918663131902
51
164.39472430626901
0
LINE
5
281
100
AcDbEntity
8
0
100
AcDbLine
10
-125.98410948565552
20
906.66503844694967
30
-2.9999999999994604
11
-26.059694069730668
21
906.69571714759286
31
-2.9999999999994693
0
ARC
5
282
100
AcDbEntity
8
0
100
AcDbCircle
10
-26.051687653408038
20
880.61780465944946
30
-2.999999999999492
40
26.077913717204449
210
5.7174334544122025e-17
220
-5.6581581897335774e-16
230
1
100
AcDbArc
50
27.751418136210713
51
90.017590896131225
0
LINE
5
283
100
AcDbEntity
8
0
100
AcDbLine
10
-2.9733569446581942
20
892.76063116482021
30
-2.9999999999994866
11
-3.0000000000000799
21
503.2823347734581
31
-2.9999999999997051
0
LINE
5
284
100
AcDbEntity
8
0
100
AcDbLine
10
-3.0000000000000799
20
503.2823347734581
30
-2.9999999999997051
11
-83.055509198523808
21
503.28794757005198
31
-2.9999999999997056
0
ARC
5
285
100
AcDbEntity
8
0
100
AcDbCircle
10
-2376.6020139710549
20
264.35761522909354
30
-2.9999999999997584
40
2305.9582115179051
210
3.1895453231160442e-17
220
-5.2688705411631072e-16
230
1
100
AcDbArc
50
5.9473384874202981
51
10.978466670883938
0
LINE
5
286
100
AcDbEntity
8
0
100
AcDbLine
10
-112.84554633345155
20
703.5044340673694
30
-2.9999999999995879
11
-147.62310394211954
21
876.96478054460454
31
-2.999999999999492
0
ENDSEC
0
SECTION
2
OBJECTS
0
DICTIONARY
5
C
100
AcDbDictionary
3
ACAD_GROUP
350
D
3
ACAD_MLINESTYLE
350
17
0
DICTIONARY
5
D
100
AcDbDictionary
0
DICTIONARY
5
1A
330
C
100
AcDbDictionary
0
DICTIONARY
5
17
100
AcDbDictionary
0
ENDSEC
0
EOF
